-- Merging decision tree log ---
manifest
ADDED from /Users/waleediqbal/Documents/ReactNative/TestFolder/android/app/src/main/AndroidManifest.xml:1:1-27:12
INJECTED from /Users/waleediqbal/Documents/ReactNative/TestFolder/android/app/src/main/AndroidManifest.xml:1:1-27:12
INJECTED from /Users/waleediqbal/Documents/ReactNative/TestFolder/android/app/src/main/AndroidManifest.xml:1:1-27:12
INJECTED from /Users/waleediqbal/Documents/ReactNative/TestFolder/android/app/src/main/AndroidManifest.xml:1:1-27:12
MERGED from /Users/waleediqbal/Documents/ReactNative/TestFolder/android/app/src/main/AndroidManifest.xml:1:1-27:12
MERGED from [com.facebook.flipper:flipper:0.54.0] /Users/waleediqbal/.gradle/caches/transforms-2/files-2.1/1c7787ec82631e0394972c76bdabe608/flipper-0.54.0/AndroidManifest.xml:8:1-18:12
MERGED from [com.facebook.flipper:flipper-network-plugin:0.54.0] /Users/waleediqbal/.gradle/caches/transforms-2/files-2.1/bd2cab46fd45b530a274001375333ead/flipper-network-plugin-0.54.0/AndroidManifest.xml:8:1-15:12
MERGED from [com.facebook.flipper:flipper-fresco-plugin:0.54.0] /Users/waleediqbal/.gradle/caches/transforms-2/files-2.1/dd7dfafbb0af41b4347f18654ea5c436/flipper-fresco-plugin-0.54.0/AndroidManifest.xml:8:1-15:12
MERGED from [androidx.multidex:multidex:2.0.0] /Users/waleediqbal/.gradle/caches/transforms-2/files-2.1/d8031ba7ad89eac391d4216992656ff2/multidex-2.0.0/AndroidManifest.xml:17:1-22:12
MERGED from [:react-native-community_async-storage] /Users/waleediqbal/Documents/ReactNative/TestFolder/node_modules/@react-native-community/async-storage/android/build/intermediates/library_manifest/debug/AndroidManifest.xml:2:1-9:12
MERGED from [:react-native-community_geolocation] /Users/waleediqbal/Documents/ReactNative/TestFolder/node_modules/@react-native-community/geolocation/android/build/intermediates/library_manifest/debug/AndroidManifest.xml:2:1-9:12
MERGED from [:react-native-community_masked-view] /Users/waleediqbal/Documents/ReactNative/TestFolder/node_modules/@react-native-community/masked-view/android/build/intermediates/library_manifest/debug/AndroidManifest.xml:2:1-9:12
MERGED from [:react-native-community_netinfo] /Users/waleediqbal/Documents/ReactNative/TestFolder/node_modules/@react-native-community/netinfo/android/build/intermediates/library_manifest/debug/AndroidManifest.xml:2:1-12:12
MERGED from [:react-native-community_slider] /Users/waleediqbal/Documents/ReactNative/TestFolder/node_modules/@react-native-community/slider/android/build/intermediates/library_manifest/debug/AndroidManifest.xml:2:1-9:12
MERGED from [:react-native-community_toolbar-android] /Users/waleediqbal/Documents/ReactNative/TestFolder/node_modules/@react-native-community/toolbar-android/android/build/intermediates/library_manifest/debug/AndroidManifest.xml:2:1-11:12
MERGED from [:react-native-community_viewpager] /Users/waleediqbal/Documents/ReactNative/TestFolder/node_modules/@react-native-community/viewpager/android/build/intermediates/library_manifest/debug/AndroidManifest.xml:2:1-9:12
MERGED from [:react-native-android-location-enabler] /Users/waleediqbal/Documents/ReactNative/TestFolder/node_modules/react-native-android-location-enabler/android/build/intermediates/library_manifest/debug/AndroidManifest.xml:2:1-11:12
MERGED from [:react-native-device-info] /Users/waleediqbal/Documents/ReactNative/TestFolder/node_modules/react-native-device-info/android/build/intermediates/library_manifest/debug/AndroidManifest.xml:2:1-11:12
MERGED from [:react-native-geolocation-service] /Users/waleediqbal/Documents/ReactNative/TestFolder/node_modules/react-native-geolocation-service/android/build/intermediates/library_manifest/debug/AndroidManifest.xml:2:1-9:12
MERGED from [:react-native-gesture-handler] /Users/waleediqbal/Documents/ReactNative/TestFolder/node_modules/react-native-gesture-handler/android/build/intermediates/library_manifest/debug/AndroidManifest.xml:2:1-11:12
MERGED from [:react-native-google-places] /Users/waleediqbal/Documents/ReactNative/TestFolder/node_modules/react-native-google-places/android/build/intermediates/library_manifest/debug/AndroidManifest.xml:2:1-14:12
MERGED from [:react-native-reanimated] /Users/waleediqbal/Documents/ReactNative/TestFolder/node_modules/react-native-reanimated/android/build/intermediates/library_manifest/debug/AndroidManifest.xml:2:1-11:12
MERGED from [:react-native-safe-area-context] /Users/waleediqbal/Documents/ReactNative/TestFolder/node_modules/react-native-safe-area-context/android/build/intermediates/library_manifest/debug/AndroidManifest.xml:2:1-9:12
MERGED from [:react-native-screens] /Users/waleediqbal/Documents/ReactNative/TestFolder/node_modules/react-native-screens/android/build/intermediates/library_manifest/debug/AndroidManifest.xml:2:1-11:12
MERGED from [:react-native-splash-screen] /Users/waleediqbal/Documents/ReactNative/TestFolder/node_modules/react-native-splash-screen/android/build/intermediates/library_manifest/debug/AndroidManifest.xml:2:1-14:12
MERGED from [:react-native-thermal-receipt-printer] /Users/waleediqbal/Documents/ReactNative/TestFolder/node_modules/react-native-thermal-receipt-printer/android/build/intermediates/library_manifest/debug/AndroidManifest.xml:2:1-17:12
MERGED from [:react-native-vector-icons] /Users/waleediqbal/Documents/ReactNative/TestFolder/node_modules/react-native-vector-icons/android/build/intermediates/library_manifest/debug/AndroidManifest.xml:2:1-11:12
MERGED from [:react-native-version-check] /Users/waleediqbal/Documents/ReactNative/TestFolder/node_modules/react-native-version-check/android/build/intermediates/library_manifest/debug/AndroidManifest.xml:2:1-11:12
MERGED from [com.facebook.react:react-native:0.63.4] /Users/waleediqbal/.gradle/caches/transforms-2/files-2.1/d4d8b1986010610a499a29cb7bac493a/jetified-react-native-0.63.4/AndroidManifest.xml:2:1-13:12
MERGED from [com.google.android.libraries.places:places:1.1.0] /Users/waleediqbal/.gradle/caches/transforms-2/files-2.1/aba03b17e369c0d43479c54af4ecb6c2/jetified-places-1.1.0/AndroidManifest.xml:2:1-26:12
MERGED from [androidx.legacy:legacy-support-v4:1.0.0] /Users/waleediqbal/.gradle/caches/transforms-2/files-2.1/b9604666a0b9bbe1ab905eeb5622e5c4/legacy-support-v4-1.0.0/AndroidManifest.xml:17:1-22:12
MERGED from [androidx.recyclerview:recyclerview:1.0.0] /Users/waleediqbal/.gradle/caches/transforms-2/files-2.1/704f5b23769adab362d27449ac985204/recyclerview-1.0.0/AndroidManifest.xml:17:1-22:12
MERGED from [androidx.legacy:legacy-support-core-ui:1.0.0] /Users/waleediqbal/.gradle/caches/transforms-2/files-2.1/c4a0854b2c4c976f5fd7b439b5911773/legacy-support-core-ui-1.0.0/AndroidManifest.xml:17:1-22:12
MERGED from [androidx.swiperefreshlayout:swiperefreshlayout:1.0.0] /Users/waleediqbal/.gradle/caches/transforms-2/files-2.1/37b6f551bc5ae153b0b627de8f563815/swiperefreshlayout-1.0.0/AndroidManifest.xml:17:1-22:12
MERGED from [org.webkit:android-jsc:r245459] /Users/waleediqbal/.gradle/caches/transforms-2/files-2.1/6dd6245206e34676e1ee3aa6ee0f68c9/android-jsc-r245459/AndroidManifest.xml:2:1-11:12
MERGED from [:react-native-android-location-services-dialog-box] /Users/waleediqbal/Documents/ReactNative/TestFolder/node_modules/react-native-android-location-services-dialog-box/android/build/intermediates/library_manifest/debug/AndroidManifest.xml:2:1-12:12
MERGED from [:react-native-linear-gradient] /Users/waleediqbal/Documents/ReactNative/TestFolder/node_modules/react-native-linear-gradient/android/build/intermediates/library_manifest/debug/AndroidManifest.xml:2:1-11:12
MERGED from [com.facebook.fresco:flipper:2.2.0] /Users/waleediqbal/.gradle/caches/transforms-2/files-2.1/40741ffe3de6a11d99116b4e82d60d46/flipper-2.2.0/AndroidManifest.xml:2:1-9:12
MERGED from [com.facebook.fresco:stetho:2.2.0] /Users/waleediqbal/.gradle/caches/transforms-2/files-2.1/03aa51752e7d7098a02114b07907dabd/stetho-2.2.0/AndroidManifest.xml:2:1-9:12
MERGED from [com.facebook.fresco:fresco:2.2.0] /Users/waleediqbal/.gradle/caches/transforms-2/files-2.1/e9f56679cbe795a6f7c93e9a035f66f2/fresco-2.2.0/AndroidManifest.xml:2:1-9:12
MERGED from [com.facebook.fresco:imagepipeline-okhttp3:2.0.0] /Users/waleediqbal/.gradle/caches/transforms-2/files-2.1/559ddc4b7f576fedc63e05921b88e895/imagepipeline-okhttp3-2.0.0/AndroidManifest.xml:2:1-9:12
MERGED from [com.facebook.fresco:drawee:2.2.0] /Users/waleediqbal/.gradle/caches/transforms-2/files-2.1/0288f1bca211d259126211029f92054c/drawee-2.2.0/AndroidManifest.xml:2:1-9:12
MERGED from [com.facebook.fresco:nativeimagefilters:2.2.0] /Users/waleediqbal/.gradle/caches/transforms-2/files-2.1/766471e6648d662c31b10c1bbc5126fe/nativeimagefilters-2.2.0/AndroidManifest.xml:2:1-9:12
MERGED from [com.facebook.fresco:memory-type-native:2.2.0] /Users/waleediqbal/.gradle/caches/transforms-2/files-2.1/57a87fccccbdbe36e69f72b01ce521f1/memory-type-native-2.2.0/AndroidManifest.xml:2:1-9:12
MERGED from [com.facebook.fresco:memory-type-java:2.2.0] /Users/waleediqbal/.gradle/caches/transforms-2/files-2.1/0abe31decb23fc939dbab3bf21d1ccec/memory-type-java-2.2.0/AndroidManifest.xml:2:1-9:12
MERGED from [com.facebook.fresco:imagepipeline-native:2.2.0] /Users/waleediqbal/.gradle/caches/transforms-2/files-2.1/3b508a8e13388bdc4e88ee330cec4cdc/imagepipeline-native-2.2.0/AndroidManifest.xml:2:1-9:12
MERGED from [com.facebook.fresco:memory-type-ashmem:2.2.0] /Users/waleediqbal/.gradle/caches/transforms-2/files-2.1/104429b66e46c675401dada578683150/memory-type-ashmem-2.2.0/AndroidManifest.xml:2:1-9:12
MERGED from [com.facebook.fresco:imagepipeline:2.2.0] /Users/waleediqbal/.gradle/caches/transforms-2/files-2.1/fe90bfac000734a7d0d9c150b7915ff6/imagepipeline-2.2.0/AndroidManifest.xml:2:1-9:12
MERGED from [com.facebook.fresco:nativeimagetranscoder:2.2.0] /Users/waleediqbal/.gradle/caches/transforms-2/files-2.1/34efa7b8fb78d46cf2b753de7fbfc5a5/nativeimagetranscoder-2.2.0/AndroidManifest.xml:2:1-9:12
MERGED from [com.facebook.fresco:imagepipeline-base:2.2.0] /Users/waleediqbal/.gradle/caches/transforms-2/files-2.1/237bbc58c0787eee6b78f947e2baeeaa/imagepipeline-base-2.2.0/AndroidManifest.xml:2:1-9:12
MERGED from [com.facebook.fresco:soloader:2.2.0] /Users/waleediqbal/.gradle/caches/transforms-2/files-2.1/65f592cbf7e10992754db73be6c6ba25/soloader-2.2.0/AndroidManifest.xml:2:1-9:12
MERGED from [com.facebook.soloader:soloader:0.9.0] /Users/waleediqbal/.gradle/caches/transforms-2/files-2.1/c34148f30cbc3e974eff21cbfb6a112a/soloader-0.9.0/AndroidManifest.xml:2:1-13:12
MERGED from [androidx.appcompat:appcompat:1.1.0] /Users/waleediqbal/.gradle/caches/transforms-2/files-2.1/1cb9b9ea592aa2ea85233be252327dcf/appcompat-1.1.0/AndroidManifest.xml:17:1-24:12
MERGED from [androidx.appcompat:appcompat-resources:1.1.0] /Users/waleediqbal/.gradle/caches/transforms-2/files-2.1/b1b165607eae60d70e4267b97e24514b/appcompat-resources-1.1.0/AndroidManifest.xml:17:1-24:12
MERGED from [androidx.vectordrawable:vectordrawable-animated:1.1.0] /Users/waleediqbal/.gradle/caches/transforms-2/files-2.1/28888a6f6660db47b3788df392c672a7/vectordrawable-animated-1.1.0/AndroidManifest.xml:17:1-24:12
MERGED from [androidx.interpolator:interpolator:1.0.0] /Users/waleediqbal/.gradle/caches/transforms-2/files-2.1/efb592adf2592d134c27edc4a56e19d2/interpolator-1.0.0/AndroidManifest.xml:17:1-22:12
MERGED from [com.google.android.gms:play-services-iid:17.0.0] /Users/waleediqbal/.gradle/caches/transforms-2/files-2.1/61e3e279020c351517b511e7d56d43f0/play-services-iid-17.0.0/AndroidManifest.xml:17:1-28:12
MERGED from [androidx.transition:transition:1.1.0] /Users/waleediqbal/.gradle/caches/transforms-2/files-2.1/0543f56f80f0ca8ae69e84c65fb92ce7/transition-1.1.0/AndroidManifest.xml:17:1-22:12
MERGED from [com.google.android.gms:play-services-location:17.0.0] /Users/waleediqbal/.gradle/caches/transforms-2/files-2.1/cfe184b2b3fc6f019a80d581fc6f7447/play-services-location-17.0.0/AndroidManifest.xml:2:1-9:12
MERGED from [com.google.android.gms:play-services-clearcut:16.0.0] /Users/waleediqbal/.gradle/caches/transforms-2/files-2.1/181a6ea40065dd361ffebabec843fbfd/jetified-play-services-clearcut-16.0.0/AndroidManifest.xml:17:1-24:12
MERGED from [com.google.android.gms:play-services-maps:16.1.0] /Users/waleediqbal/.gradle/caches/transforms-2/files-2.1/dc5091ee4d4f69d2ccdb8c0c244e8b06/jetified-play-services-maps-16.1.0/AndroidManifest.xml:17:1-38:12
MERGED from [com.google.android.gms:play-services-phenotype:16.0.0] /Users/waleediqbal/.gradle/caches/transforms-2/files-2.1/6e9e9dfc3c57d4659c7ab7204c453f27/jetified-play-services-phenotype-16.0.0/AndroidManifest.xml:17:1-24:12
MERGED from [com.google.android.gms:play-services-base:17.0.0] /Users/waleediqbal/.gradle/caches/transforms-2/files-2.1/fc8046cb9a5df9499609a5f7f8270b1b/play-services-base-17.0.0/AndroidManifest.xml:17:1-29:12
MERGED from [com.google.android.gms:play-services-places-placereport:17.0.0] /Users/waleediqbal/.gradle/caches/transforms-2/files-2.1/7aa1097eb47596f6fc594d09cb57b709/play-services-places-placereport-17.0.0/AndroidManifest.xml:17:1-24:12
MERGED from [com.google.android.gms:play-services-tasks:17.0.0] /Users/waleediqbal/.gradle/caches/transforms-2/files-2.1/a5841d1417e823e700e7ed3e71829aa8/play-services-tasks-17.0.0/AndroidManifest.xml:2:1-9:12
MERGED from [com.google.android.gms:play-services-stats:17.0.0] /Users/waleediqbal/.gradle/caches/transforms-2/files-2.1/a7d592ae24f64a8578bf18e4cd7bc115/play-services-stats-17.0.0/AndroidManifest.xml:2:1-9:12
MERGED from [com.google.android.gms:play-services-basement:17.0.0] /Users/waleediqbal/.gradle/caches/transforms-2/files-2.1/e3f2e4860c91caf3bc414e66418d2ab8/jetified-play-services-basement-17.0.0/AndroidManifest.xml:17:1-28:12
MERGED from [androidx.fragment:fragment:1.1.0] /Users/waleediqbal/.gradle/caches/transforms-2/files-2.1/c934b79c937aa60e75835d011c2154af/fragment-1.1.0/AndroidManifest.xml:17:1-24:12
MERGED from [androidx.drawerlayout:drawerlayout:1.0.0] /Users/waleediqbal/.gradle/caches/transforms-2/files-2.1/c99af001058cd5265376dded8456f828/drawerlayout-1.0.0/AndroidManifest.xml:17:1-22:12
MERGED from [androidx.media:media:1.0.0] /Users/waleediqbal/.gradle/caches/transforms-2/files-2.1/e1a755a5eb4e9c5b244c1a9f660f0c11/media-1.0.0/AndroidManifest.xml:17:1-22:12
MERGED from [androidx.legacy:legacy-support-core-utils:1.0.0] /Users/waleediqbal/.gradle/caches/transforms-2/files-2.1/1b42f88dea3794bc67b44839b4ca1a7b/legacy-support-core-utils-1.0.0/AndroidManifest.xml:17:1-22:12
MERGED from [androidx.viewpager:viewpager:1.0.0] /Users/waleediqbal/.gradle/caches/transforms-2/files-2.1/40f1c5d439eea30faeaafe93e7bdf45f/viewpager-1.0.0/AndroidManifest.xml:17:1-22:12
MERGED from [androidx.loader:loader:1.0.0] /Users/waleediqbal/.gradle/caches/transforms-2/files-2.1/faa15558a5d57e35e462c9e1f0248694/loader-1.0.0/AndroidManifest.xml:17:1-22:12
MERGED from [androidx.activity:activity:1.0.0] /Users/waleediqbal/.gradle/caches/transforms-2/files-2.1/cb2387ed8645a8641b6e8f462a3058a0/activity-1.0.0/AndroidManifest.xml:17:1-24:12
MERGED from [androidx.vectordrawable:vectordrawable:1.1.0] /Users/waleediqbal/.gradle/caches/transforms-2/files-2.1/6bd464ed06f075f4e42b3fde6a89e60a/vectordrawable-1.1.0/AndroidManifest.xml:17:1-24:12
MERGED from [androidx.coordinatorlayout:coordinatorlayout:1.0.0] /Users/waleediqbal/.gradle/caches/transforms-2/files-2.1/1289d5f505a72781714dc6082144c977/coordinatorlayout-1.0.0/AndroidManifest.xml:17:1-22:12
MERGED from [androidx.slidingpanelayout:slidingpanelayout:1.0.0] /Users/waleediqbal/.gradle/caches/transforms-2/files-2.1/f53bca436baf2a2670073f8750b0b7d5/slidingpanelayout-1.0.0/AndroidManifest.xml:17:1-22:12
MERGED from [androidx.customview:customview:1.0.0] /Users/waleediqbal/.gradle/caches/transforms-2/files-2.1/e0a79d4379c4eef3803202a497c19313/customview-1.0.0/AndroidManifest.xml:17:1-22:12
MERGED from [androidx.asynclayoutinflater:asynclayoutinflater:1.0.0] /Users/waleediqbal/.gradle/caches/transforms-2/files-2.1/8dc6c78d6d7c962ba02416981491cd60/asynclayoutinflater-1.0.0/AndroidManifest.xml:17:1-22:12
MERGED from [androidx.core:core:1.3.2] /Users/waleediqbal/.gradle/caches/transforms-2/files-2.1/f52ab1b1c1a6a08a00d0ab9466319bb3/core-1.3.2/AndroidManifest.xml:17:1-26:12
MERGED from [androidx.cursoradapter:cursoradapter:1.0.0] /Users/waleediqbal/.gradle/caches/transforms-2/files-2.1/3b41f2ef3d4a30256bbd9d1017371108/cursoradapter-1.0.0/AndroidManifest.xml:17:1-22:12
MERGED from [androidx.versionedparcelable:versionedparcelable:1.1.0] /Users/waleediqbal/.gradle/caches/transforms-2/files-2.1/2786c84c1e653e40bd67508414ca298f/versionedparcelable-1.1.0/AndroidManifest.xml:17:1-27:12
MERGED from [androidx.cardview:cardview:1.0.0] /Users/waleediqbal/.gradle/caches/transforms-2/files-2.1/7ce8a2eb9e81825ec9bcc373c597a746/cardview-1.0.0/AndroidManifest.xml:17:1-22:12
MERGED from [com.github.bumptech.glide:glide:4.3.1] /Users/waleediqbal/.gradle/caches/transforms-2/files-2.1/2ff89e5e0a19e85ec53bbdafa6bf46a7/jetified-glide-4.3.1/AndroidManifest.xml:2:1-12:12
MERGED from [androidx.documentfile:documentfile:1.0.0] /Users/waleediqbal/.gradle/caches/transforms-2/files-2.1/d78ae12d9aa12e93077461f94a53335b/documentfile-1.0.0/AndroidManifest.xml:17:1-22:12
MERGED from [androidx.localbroadcastmanager:localbroadcastmanager:1.0.0] /Users/waleediqbal/.gradle/caches/transforms-2/files-2.1/3d5c1e204ac62dc0f6d5059f5e3eaa42/localbroadcastmanager-1.0.0/AndroidManifest.xml:17:1-22:12
MERGED from [androidx.print:print:1.0.0] /Users/waleediqbal/.gradle/caches/transforms-2/files-2.1/37c50c3790fd1f696b8c9e7a44956408/print-1.0.0/AndroidManifest.xml:17:1-22:12
MERGED from [androidx.lifecycle:lifecycle-runtime:2.1.0] /Users/waleediqbal/.gradle/caches/transforms-2/files-2.1/7268e652b9483dcb77c195ad2a8fa532/lifecycle-runtime-2.1.0/AndroidManifest.xml:17:1-22:12
MERGED from [androidx.lifecycle:lifecycle-viewmodel:2.1.0] /Users/waleediqbal/.gradle/caches/transforms-2/files-2.1/566e741fe30adc1beecccfb70fe55958/lifecycle-viewmodel-2.1.0/AndroidManifest.xml:17:1-22:12
MERGED from [androidx.savedstate:savedstate:1.0.0] /Users/waleediqbal/.gradle/caches/transforms-2/files-2.1/4ce17f8b4390b23da9bedc3cee010ec1/savedstate-1.0.0/AndroidManifest.xml:17:1-24:12
MERGED from [androidx.lifecycle:lifecycle-livedata:2.0.0] /Users/waleediqbal/.gradle/caches/transforms-2/files-2.1/4da6ddd3c71dbaec92b0fdf3bbca4ce7/lifecycle-livedata-2.0.0/AndroidManifest.xml:17:1-22:12
MERGED from [androidx.lifecycle:lifecycle-livedata-core:2.0.0] /Users/waleediqbal/.gradle/caches/transforms-2/files-2.1/7795d60208f5dec52ee32d30407c8252/lifecycle-livedata-core-2.0.0/AndroidManifest.xml:17:1-22:12
MERGED from [androidx.arch.core:core-runtime:2.0.0] /Users/waleediqbal/.gradle/caches/transforms-2/files-2.1/9c44c714e7f61700ba86ba0b726bac90/core-runtime-2.0.0/AndroidManifest.xml:17:1-22:12
MERGED from [com.android.installreferrer:installreferrer:1.1.2] /Users/waleediqbal/.gradle/caches/transforms-2/files-2.1/744c11701aa7144a8d6a8e89bcdad6bd/installreferrer-1.1.2/AndroidManifest.xml:2:1-13:12
MERGED from [com.facebook.fresco:fbcore:2.2.0] /Users/waleediqbal/.gradle/caches/transforms-2/files-2.1/2c96500720dce23f08ddf87cad6606df/jetified-fbcore-2.2.0/AndroidManifest.xml:2:1-9:12
MERGED from [com.facebook.fresco:ui-common:2.2.0] /Users/waleediqbal/.gradle/caches/transforms-2/files-2.1/c114d4501470930b3986c4f9bd2da0fd/ui-common-2.2.0/AndroidManifest.xml:2:1-9:12
MERGED from [com.android.volley:volley:1.1.1] /Users/waleediqbal/.gradle/caches/transforms-2/files-2.1/48a12890f62bc69959bcfa632f93e122/jetified-volley-1.1.1/AndroidManifest.xml:2:1-11:12
INJECTED from /Users/waleediqbal/Documents/ReactNative/TestFolder/android/app/src/debug/AndroidManifest.xml:2:1-8:12
INJECTED from /Users/waleediqbal/Documents/ReactNative/TestFolder/android/app/src/debug/AndroidManifest.xml:2:1-8:12
INJECTED from /Users/waleediqbal/Documents/ReactNative/TestFolder/android/app/src/debug/AndroidManifest.xml:2:1-8:12
	package
		ADDED from /Users/waleediqbal/Documents/ReactNative/TestFolder/android/app/src/main/AndroidManifest.xml:2:3-31
		INJECTED from /Users/waleediqbal/Documents/ReactNative/TestFolder/android/app/src/main/AndroidManifest.xml
		ADDED from /Users/waleediqbal/Documents/ReactNative/TestFolder/android/app/src/main/AndroidManifest.xml:2:3-31
		INJECTED from /Users/waleediqbal/Documents/ReactNative/TestFolder/android/app/src/debug/AndroidManifest.xml
	android:versionName
		INJECTED from /Users/waleediqbal/Documents/ReactNative/TestFolder/android/app/src/main/AndroidManifest.xml
		ADDED from /Users/waleediqbal/Documents/ReactNative/TestFolder/android/app/src/main/AndroidManifest.xml:1:1-27:12
		INJECTED from /Users/waleediqbal/Documents/ReactNative/TestFolder/android/app/src/debug/AndroidManifest.xml
	xmlns:tools
		ADDED from /Users/waleediqbal/Documents/ReactNative/TestFolder/android/app/src/debug/AndroidManifest.xml:3:5-51
	android:versionCode
		INJECTED from /Users/waleediqbal/Documents/ReactNative/TestFolder/android/app/src/main/AndroidManifest.xml
		ADDED from /Users/waleediqbal/Documents/ReactNative/TestFolder/android/app/src/main/AndroidManifest.xml:1:1-27:12
		INJECTED from /Users/waleediqbal/Documents/ReactNative/TestFolder/android/app/src/debug/AndroidManifest.xml
	xmlns:android
		ADDED from /Users/waleediqbal/Documents/ReactNative/TestFolder/android/app/src/main/AndroidManifest.xml:1:11-69
uses-permission#android.permission.INTERNET
ADDED from /Users/waleediqbal/Documents/ReactNative/TestFolder/android/app/src/main/AndroidManifest.xml:4:5-67
MERGED from [com.facebook.flipper:flipper:0.54.0] /Users/waleediqbal/.gradle/caches/transforms-2/files-2.1/1c7787ec82631e0394972c76bdabe608/flipper-0.54.0/AndroidManifest.xml:15:5-67
MERGED from [com.facebook.flipper:flipper:0.54.0] /Users/waleediqbal/.gradle/caches/transforms-2/files-2.1/1c7787ec82631e0394972c76bdabe608/flipper-0.54.0/AndroidManifest.xml:15:5-67
MERGED from [:react-native-thermal-receipt-printer] /Users/waleediqbal/Documents/ReactNative/TestFolder/node_modules/react-native-thermal-receipt-printer/android/build/intermediates/library_manifest/debug/AndroidManifest.xml:11:5-67
MERGED from [:react-native-thermal-receipt-printer] /Users/waleediqbal/Documents/ReactNative/TestFolder/node_modules/react-native-thermal-receipt-printer/android/build/intermediates/library_manifest/debug/AndroidManifest.xml:11:5-67
MERGED from [com.google.android.libraries.places:places:1.1.0] /Users/waleediqbal/.gradle/caches/transforms-2/files-2.1/aba03b17e369c0d43479c54af4ecb6c2/jetified-places-1.1.0/AndroidManifest.xml:11:5-67
MERGED from [com.google.android.libraries.places:places:1.1.0] /Users/waleediqbal/.gradle/caches/transforms-2/files-2.1/aba03b17e369c0d43479c54af4ecb6c2/jetified-places-1.1.0/AndroidManifest.xml:11:5-67
MERGED from [com.google.android.gms:play-services-iid:17.0.0] /Users/waleediqbal/.gradle/caches/transforms-2/files-2.1/61e3e279020c351517b511e7d56d43f0/play-services-iid-17.0.0/AndroidManifest.xml:24:5-67
MERGED from [com.google.android.gms:play-services-iid:17.0.0] /Users/waleediqbal/.gradle/caches/transforms-2/files-2.1/61e3e279020c351517b511e7d56d43f0/play-services-iid-17.0.0/AndroidManifest.xml:24:5-67
MERGED from [com.google.android.gms:play-services-maps:16.1.0] /Users/waleediqbal/.gradle/caches/transforms-2/files-2.1/dc5091ee4d4f69d2ccdb8c0c244e8b06/jetified-play-services-maps-16.1.0/AndroidManifest.xml:24:5-67
MERGED from [com.google.android.gms:play-services-maps:16.1.0] /Users/waleediqbal/.gradle/caches/transforms-2/files-2.1/dc5091ee4d4f69d2ccdb8c0c244e8b06/jetified-play-services-maps-16.1.0/AndroidManifest.xml:24:5-67
	android:name
		ADDED from /Users/waleediqbal/Documents/ReactNative/TestFolder/android/app/src/main/AndroidManifest.xml:4:22-64
application
ADDED from /Users/waleediqbal/Documents/ReactNative/TestFolder/android/app/src/main/AndroidManifest.xml:6:5-25:19
MERGED from /Users/waleediqbal/Documents/ReactNative/TestFolder/android/app/src/main/AndroidManifest.xml:6:5-25:19
MERGED from /Users/waleediqbal/Documents/ReactNative/TestFolder/android/app/src/main/AndroidManifest.xml:6:5-25:19
MERGED from [:react-native-google-places] /Users/waleediqbal/Documents/ReactNative/TestFolder/node_modules/react-native-google-places/android/build/intermediates/library_manifest/debug/AndroidManifest.xml:9:5-12:19
MERGED from [:react-native-google-places] /Users/waleediqbal/Documents/ReactNative/TestFolder/node_modules/react-native-google-places/android/build/intermediates/library_manifest/debug/AndroidManifest.xml:9:5-12:19
MERGED from [:react-native-splash-screen] /Users/waleediqbal/Documents/ReactNative/TestFolder/node_modules/react-native-splash-screen/android/build/intermediates/library_manifest/debug/AndroidManifest.xml:11:5-12:19
MERGED from [:react-native-splash-screen] /Users/waleediqbal/Documents/ReactNative/TestFolder/node_modules/react-native-splash-screen/android/build/intermediates/library_manifest/debug/AndroidManifest.xml:11:5-12:19
MERGED from [com.facebook.react:react-native:0.63.4] /Users/waleediqbal/.gradle/caches/transforms-2/files-2.1/d4d8b1986010610a499a29cb7bac493a/jetified-react-native-0.63.4/AndroidManifest.xml:11:5-20
MERGED from [com.facebook.react:react-native:0.63.4] /Users/waleediqbal/.gradle/caches/transforms-2/files-2.1/d4d8b1986010610a499a29cb7bac493a/jetified-react-native-0.63.4/AndroidManifest.xml:11:5-20
MERGED from [com.google.android.libraries.places:places:1.1.0] /Users/waleediqbal/.gradle/caches/transforms-2/files-2.1/aba03b17e369c0d43479c54af4ecb6c2/jetified-places-1.1.0/AndroidManifest.xml:13:5-24:19
MERGED from [com.google.android.libraries.places:places:1.1.0] /Users/waleediqbal/.gradle/caches/transforms-2/files-2.1/aba03b17e369c0d43479c54af4ecb6c2/jetified-places-1.1.0/AndroidManifest.xml:13:5-24:19
MERGED from [com.facebook.soloader:soloader:0.9.0] /Users/waleediqbal/.gradle/caches/transforms-2/files-2.1/c34148f30cbc3e974eff21cbfb6a112a/soloader-0.9.0/AndroidManifest.xml:11:5-20
MERGED from [com.facebook.soloader:soloader:0.9.0] /Users/waleediqbal/.gradle/caches/transforms-2/files-2.1/c34148f30cbc3e974eff21cbfb6a112a/soloader-0.9.0/AndroidManifest.xml:11:5-20
MERGED from [com.google.android.gms:play-services-iid:17.0.0] /Users/waleediqbal/.gradle/caches/transforms-2/files-2.1/61e3e279020c351517b511e7d56d43f0/play-services-iid-17.0.0/AndroidManifest.xml:26:5-20
MERGED from [com.google.android.gms:play-services-iid:17.0.0] /Users/waleediqbal/.gradle/caches/transforms-2/files-2.1/61e3e279020c351517b511e7d56d43f0/play-services-iid-17.0.0/AndroidManifest.xml:26:5-20
MERGED from [com.google.android.gms:play-services-location:17.0.0] /Users/waleediqbal/.gradle/caches/transforms-2/files-2.1/cfe184b2b3fc6f019a80d581fc6f7447/play-services-location-17.0.0/AndroidManifest.xml:7:5-20
MERGED from [com.google.android.gms:play-services-location:17.0.0] /Users/waleediqbal/.gradle/caches/transforms-2/files-2.1/cfe184b2b3fc6f019a80d581fc6f7447/play-services-location-17.0.0/AndroidManifest.xml:7:5-20
MERGED from [com.google.android.gms:play-services-clearcut:16.0.0] /Users/waleediqbal/.gradle/caches/transforms-2/files-2.1/181a6ea40065dd361ffebabec843fbfd/jetified-play-services-clearcut-16.0.0/AndroidManifest.xml:22:5-20
MERGED from [com.google.android.gms:play-services-clearcut:16.0.0] /Users/waleediqbal/.gradle/caches/transforms-2/files-2.1/181a6ea40065dd361ffebabec843fbfd/jetified-play-services-clearcut-16.0.0/AndroidManifest.xml:22:5-20
MERGED from [com.google.android.gms:play-services-maps:16.1.0] /Users/waleediqbal/.gradle/caches/transforms-2/files-2.1/dc5091ee4d4f69d2ccdb8c0c244e8b06/jetified-play-services-maps-16.1.0/AndroidManifest.xml:30:5-36:19
MERGED from [com.google.android.gms:play-services-maps:16.1.0] /Users/waleediqbal/.gradle/caches/transforms-2/files-2.1/dc5091ee4d4f69d2ccdb8c0c244e8b06/jetified-play-services-maps-16.1.0/AndroidManifest.xml:30:5-36:19
MERGED from [com.google.android.gms:play-services-phenotype:16.0.0] /Users/waleediqbal/.gradle/caches/transforms-2/files-2.1/6e9e9dfc3c57d4659c7ab7204c453f27/jetified-play-services-phenotype-16.0.0/AndroidManifest.xml:22:5-20
MERGED from [com.google.android.gms:play-services-phenotype:16.0.0] /Users/waleediqbal/.gradle/caches/transforms-2/files-2.1/6e9e9dfc3c57d4659c7ab7204c453f27/jetified-play-services-phenotype-16.0.0/AndroidManifest.xml:22:5-20
MERGED from [com.google.android.gms:play-services-base:17.0.0] /Users/waleediqbal/.gradle/caches/transforms-2/files-2.1/fc8046cb9a5df9499609a5f7f8270b1b/play-services-base-17.0.0/AndroidManifest.xml:22:5-27:19
MERGED from [com.google.android.gms:play-services-base:17.0.0] /Users/waleediqbal/.gradle/caches/transforms-2/files-2.1/fc8046cb9a5df9499609a5f7f8270b1b/play-services-base-17.0.0/AndroidManifest.xml:22:5-27:19
MERGED from [com.google.android.gms:play-services-places-placereport:17.0.0] /Users/waleediqbal/.gradle/caches/transforms-2/files-2.1/7aa1097eb47596f6fc594d09cb57b709/play-services-places-placereport-17.0.0/AndroidManifest.xml:22:5-20
MERGED from [com.google.android.gms:play-services-places-placereport:17.0.0] /Users/waleediqbal/.gradle/caches/transforms-2/files-2.1/7aa1097eb47596f6fc594d09cb57b709/play-services-places-placereport-17.0.0/AndroidManifest.xml:22:5-20
MERGED from [com.google.android.gms:play-services-tasks:17.0.0] /Users/waleediqbal/.gradle/caches/transforms-2/files-2.1/a5841d1417e823e700e7ed3e71829aa8/play-services-tasks-17.0.0/AndroidManifest.xml:7:5-20
MERGED from [com.google.android.gms:play-services-tasks:17.0.0] /Users/waleediqbal/.gradle/caches/transforms-2/files-2.1/a5841d1417e823e700e7ed3e71829aa8/play-services-tasks-17.0.0/AndroidManifest.xml:7:5-20
MERGED from [com.google.android.gms:play-services-stats:17.0.0] /Users/waleediqbal/.gradle/caches/transforms-2/files-2.1/a7d592ae24f64a8578bf18e4cd7bc115/play-services-stats-17.0.0/AndroidManifest.xml:7:5-20
MERGED from [com.google.android.gms:play-services-stats:17.0.0] /Users/waleediqbal/.gradle/caches/transforms-2/files-2.1/a7d592ae24f64a8578bf18e4cd7bc115/play-services-stats-17.0.0/AndroidManifest.xml:7:5-20
MERGED from [com.google.android.gms:play-services-basement:17.0.0] /Users/waleediqbal/.gradle/caches/transforms-2/files-2.1/e3f2e4860c91caf3bc414e66418d2ab8/jetified-play-services-basement-17.0.0/AndroidManifest.xml:22:5-26:19
MERGED from [com.google.android.gms:play-services-basement:17.0.0] /Users/waleediqbal/.gradle/caches/transforms-2/files-2.1/e3f2e4860c91caf3bc414e66418d2ab8/jetified-play-services-basement-17.0.0/AndroidManifest.xml:22:5-26:19
MERGED from [androidx.core:core:1.3.2] /Users/waleediqbal/.gradle/caches/transforms-2/files-2.1/f52ab1b1c1a6a08a00d0ab9466319bb3/core-1.3.2/AndroidManifest.xml:24:5-89
MERGED from [androidx.core:core:1.3.2] /Users/waleediqbal/.gradle/caches/transforms-2/files-2.1/f52ab1b1c1a6a08a00d0ab9466319bb3/core-1.3.2/AndroidManifest.xml:24:5-89
MERGED from [androidx.versionedparcelable:versionedparcelable:1.1.0] /Users/waleediqbal/.gradle/caches/transforms-2/files-2.1/2786c84c1e653e40bd67508414ca298f/versionedparcelable-1.1.0/AndroidManifest.xml:24:5-25:19
MERGED from [androidx.versionedparcelable:versionedparcelable:1.1.0] /Users/waleediqbal/.gradle/caches/transforms-2/files-2.1/2786c84c1e653e40bd67508414ca298f/versionedparcelable-1.1.0/AndroidManifest.xml:24:5-25:19
MERGED from [com.github.bumptech.glide:glide:4.3.1] /Users/waleediqbal/.gradle/caches/transforms-2/files-2.1/2ff89e5e0a19e85ec53bbdafa6bf46a7/jetified-glide-4.3.1/AndroidManifest.xml:10:5-20
MERGED from [com.github.bumptech.glide:glide:4.3.1] /Users/waleediqbal/.gradle/caches/transforms-2/files-2.1/2ff89e5e0a19e85ec53bbdafa6bf46a7/jetified-glide-4.3.1/AndroidManifest.xml:10:5-20
MERGED from [com.android.installreferrer:installreferrer:1.1.2] /Users/waleediqbal/.gradle/caches/transforms-2/files-2.1/744c11701aa7144a8d6a8e89bcdad6bd/installreferrer-1.1.2/AndroidManifest.xml:11:5-20
MERGED from [com.android.installreferrer:installreferrer:1.1.2] /Users/waleediqbal/.gradle/caches/transforms-2/files-2.1/744c11701aa7144a8d6a8e89bcdad6bd/installreferrer-1.1.2/AndroidManifest.xml:11:5-20
MERGED from [com.android.volley:volley:1.1.1] /Users/waleediqbal/.gradle/caches/transforms-2/files-2.1/48a12890f62bc69959bcfa632f93e122/jetified-volley-1.1.1/AndroidManifest.xml:9:5-20
MERGED from [com.android.volley:volley:1.1.1] /Users/waleediqbal/.gradle/caches/transforms-2/files-2.1/48a12890f62bc69959bcfa632f93e122/jetified-volley-1.1.1/AndroidManifest.xml:9:5-20
	android:appComponentFactory
		ADDED from [androidx.core:core:1.3.2] /Users/waleediqbal/.gradle/caches/transforms-2/files-2.1/f52ab1b1c1a6a08a00d0ab9466319bb3/core-1.3.2/AndroidManifest.xml:24:18-86
	android:supportsRtl
		ADDED from [:react-native-google-places] /Users/waleediqbal/Documents/ReactNative/TestFolder/node_modules/react-native-google-places/android/build/intermediates/library_manifest/debug/AndroidManifest.xml:11:9-35
	android:label
		ADDED from /Users/waleediqbal/Documents/ReactNative/TestFolder/android/app/src/main/AndroidManifest.xml:8:7-39
		ADDED from /Users/waleediqbal/Documents/ReactNative/TestFolder/android/app/src/main/AndroidManifest.xml:8:7-39
	tools:ignore
		ADDED from /Users/waleediqbal/Documents/ReactNative/TestFolder/android/app/src/debug/AndroidManifest.xml:7:75-114
	android:roundIcon
		ADDED from /Users/waleediqbal/Documents/ReactNative/TestFolder/android/app/src/main/AndroidManifest.xml:10:7-52
		ADDED from /Users/waleediqbal/Documents/ReactNative/TestFolder/android/app/src/main/AndroidManifest.xml:10:7-52
	tools:targetApi
		ADDED from /Users/waleediqbal/Documents/ReactNative/TestFolder/android/app/src/debug/AndroidManifest.xml:7:54-74
	android:icon
		ADDED from /Users/waleediqbal/Documents/ReactNative/TestFolder/android/app/src/main/AndroidManifest.xml:9:7-41
		ADDED from /Users/waleediqbal/Documents/ReactNative/TestFolder/android/app/src/main/AndroidManifest.xml:9:7-41
	android:allowBackup
		ADDED from /Users/waleediqbal/Documents/ReactNative/TestFolder/android/app/src/main/AndroidManifest.xml:11:7-34
		ADDED from /Users/waleediqbal/Documents/ReactNative/TestFolder/android/app/src/main/AndroidManifest.xml:11:7-34
	android:theme
		ADDED from /Users/waleediqbal/Documents/ReactNative/TestFolder/android/app/src/main/AndroidManifest.xml:12:7-38
		ADDED from /Users/waleediqbal/Documents/ReactNative/TestFolder/android/app/src/main/AndroidManifest.xml:12:7-38
	android:usesCleartextTraffic
		ADDED from /Users/waleediqbal/Documents/ReactNative/TestFolder/android/app/src/debug/AndroidManifest.xml:7:18-53
	android:name
		ADDED from /Users/waleediqbal/Documents/ReactNative/TestFolder/android/app/src/main/AndroidManifest.xml:7:7-38
		ADDED from /Users/waleediqbal/Documents/ReactNative/TestFolder/android/app/src/main/AndroidManifest.xml:7:7-38
activity#com.testproject.pk.MainActivity
ADDED from /Users/waleediqbal/Documents/ReactNative/TestFolder/android/app/src/main/AndroidManifest.xml:13:7-23:18
	android:label
		ADDED from /Users/waleediqbal/Documents/ReactNative/TestFolder/android/app/src/main/AndroidManifest.xml:15:9-41
	android:launchMode
		ADDED from /Users/waleediqbal/Documents/ReactNative/TestFolder/android/app/src/main/AndroidManifest.xml:17:9-40
	android:windowSoftInputMode
		ADDED from /Users/waleediqbal/Documents/ReactNative/TestFolder/android/app/src/main/AndroidManifest.xml:18:9-51
	android:configChanges
		ADDED from /Users/waleediqbal/Documents/ReactNative/TestFolder/android/app/src/main/AndroidManifest.xml:16:9-86
	android:name
		ADDED from /Users/waleediqbal/Documents/ReactNative/TestFolder/android/app/src/main/AndroidManifest.xml:14:9-37
intent-filter#action:name:android.intent.action.MAIN+category:name:android.intent.category.LAUNCHER
ADDED from /Users/waleediqbal/Documents/ReactNative/TestFolder/android/app/src/main/AndroidManifest.xml:19:9-22:25
action#android.intent.action.MAIN
ADDED from /Users/waleediqbal/Documents/ReactNative/TestFolder/android/app/src/main/AndroidManifest.xml:20:13-65
	android:name
		ADDED from /Users/waleediqbal/Documents/ReactNative/TestFolder/android/app/src/main/AndroidManifest.xml:20:21-62
category#android.intent.category.LAUNCHER
ADDED from /Users/waleediqbal/Documents/ReactNative/TestFolder/android/app/src/main/AndroidManifest.xml:21:13-73
	android:name
		ADDED from /Users/waleediqbal/Documents/ReactNative/TestFolder/android/app/src/main/AndroidManifest.xml:21:23-70
activity#com.facebook.react.devsupport.DevSettingsActivity
ADDED from /Users/waleediqbal/Documents/ReactNative/TestFolder/android/app/src/main/AndroidManifest.xml:24:7-84
	android:name
		ADDED from /Users/waleediqbal/Documents/ReactNative/TestFolder/android/app/src/main/AndroidManifest.xml:24:17-81
uses-sdk
INJECTED from /Users/waleediqbal/Documents/ReactNative/TestFolder/android/app/src/main/AndroidManifest.xml reason: use-sdk injection requested
INJECTED from /Users/waleediqbal/Documents/ReactNative/TestFolder/android/app/src/main/AndroidManifest.xml
INJECTED from /Users/waleediqbal/Documents/ReactNative/TestFolder/android/app/src/main/AndroidManifest.xml
MERGED from [com.facebook.flipper:flipper:0.54.0] /Users/waleediqbal/.gradle/caches/transforms-2/files-2.1/1c7787ec82631e0394972c76bdabe608/flipper-0.54.0/AndroidManifest.xml:11:5-13:41
MERGED from [com.facebook.flipper:flipper:0.54.0] /Users/waleediqbal/.gradle/caches/transforms-2/files-2.1/1c7787ec82631e0394972c76bdabe608/flipper-0.54.0/AndroidManifest.xml:11:5-13:41
MERGED from [com.facebook.flipper:flipper-network-plugin:0.54.0] /Users/waleediqbal/.gradle/caches/transforms-2/files-2.1/bd2cab46fd45b530a274001375333ead/flipper-network-plugin-0.54.0/AndroidManifest.xml:11:5-13:41
MERGED from [com.facebook.flipper:flipper-network-plugin:0.54.0] /Users/waleediqbal/.gradle/caches/transforms-2/files-2.1/bd2cab46fd45b530a274001375333ead/flipper-network-plugin-0.54.0/AndroidManifest.xml:11:5-13:41
MERGED from [com.facebook.flipper:flipper-fresco-plugin:0.54.0] /Users/waleediqbal/.gradle/caches/transforms-2/files-2.1/dd7dfafbb0af41b4347f18654ea5c436/flipper-fresco-plugin-0.54.0/AndroidManifest.xml:11:5-13:41
MERGED from [com.facebook.flipper:flipper-fresco-plugin:0.54.0] /Users/waleediqbal/.gradle/caches/transforms-2/files-2.1/dd7dfafbb0af41b4347f18654ea5c436/flipper-fresco-plugin-0.54.0/AndroidManifest.xml:11:5-13:41
MERGED from [androidx.multidex:multidex:2.0.0] /Users/waleediqbal/.gradle/caches/transforms-2/files-2.1/d8031ba7ad89eac391d4216992656ff2/multidex-2.0.0/AndroidManifest.xml:20:5-43
MERGED from [androidx.multidex:multidex:2.0.0] /Users/waleediqbal/.gradle/caches/transforms-2/files-2.1/d8031ba7ad89eac391d4216992656ff2/multidex-2.0.0/AndroidManifest.xml:20:5-43
MERGED from [:react-native-community_async-storage] /Users/waleediqbal/Documents/ReactNative/TestFolder/node_modules/@react-native-community/async-storage/android/build/intermediates/library_manifest/debug/AndroidManifest.xml:5:5-7:41
MERGED from [:react-native-community_async-storage] /Users/waleediqbal/Documents/ReactNative/TestFolder/node_modules/@react-native-community/async-storage/android/build/intermediates/library_manifest/debug/AndroidManifest.xml:5:5-7:41
MERGED from [:react-native-community_geolocation] /Users/waleediqbal/Documents/ReactNative/TestFolder/node_modules/@react-native-community/geolocation/android/build/intermediates/library_manifest/debug/AndroidManifest.xml:5:5-7:41
MERGED from [:react-native-community_geolocation] /Users/waleediqbal/Documents/ReactNative/TestFolder/node_modules/@react-native-community/geolocation/android/build/intermediates/library_manifest/debug/AndroidManifest.xml:5:5-7:41
MERGED from [:react-native-community_masked-view] /Users/waleediqbal/Documents/ReactNative/TestFolder/node_modules/@react-native-community/masked-view/android/build/intermediates/library_manifest/debug/AndroidManifest.xml:5:5-7:41
MERGED from [:react-native-community_masked-view] /Users/waleediqbal/Documents/ReactNative/TestFolder/node_modules/@react-native-community/masked-view/android/build/intermediates/library_manifest/debug/AndroidManifest.xml:5:5-7:41
MERGED from [:react-native-community_netinfo] /Users/waleediqbal/Documents/ReactNative/TestFolder/node_modules/@react-native-community/netinfo/android/build/intermediates/library_manifest/debug/AndroidManifest.xml:5:5-7:41
MERGED from [:react-native-community_netinfo] /Users/waleediqbal/Documents/ReactNative/TestFolder/node_modules/@react-native-community/netinfo/android/build/intermediates/library_manifest/debug/AndroidManifest.xml:5:5-7:41
MERGED from [:react-native-community_slider] /Users/waleediqbal/Documents/ReactNative/TestFolder/node_modules/@react-native-community/slider/android/build/intermediates/library_manifest/debug/AndroidManifest.xml:5:5-7:41
MERGED from [:react-native-community_slider] /Users/waleediqbal/Documents/ReactNative/TestFolder/node_modules/@react-native-community/slider/android/build/intermediates/library_manifest/debug/AndroidManifest.xml:5:5-7:41
MERGED from [:react-native-community_toolbar-android] /Users/waleediqbal/Documents/ReactNative/TestFolder/node_modules/@react-native-community/toolbar-android/android/build/intermediates/library_manifest/debug/AndroidManifest.xml:7:5-9:41
MERGED from [:react-native-community_toolbar-android] /Users/waleediqbal/Documents/ReactNative/TestFolder/node_modules/@react-native-community/toolbar-android/android/build/intermediates/library_manifest/debug/AndroidManifest.xml:7:5-9:41
MERGED from [:react-native-community_viewpager] /Users/waleediqbal/Documents/ReactNative/TestFolder/node_modules/@react-native-community/viewpager/android/build/intermediates/library_manifest/debug/AndroidManifest.xml:5:5-7:41
MERGED from [:react-native-community_viewpager] /Users/waleediqbal/Documents/ReactNative/TestFolder/node_modules/@react-native-community/viewpager/android/build/intermediates/library_manifest/debug/AndroidManifest.xml:5:5-7:41
MERGED from [:react-native-android-location-enabler] /Users/waleediqbal/Documents/ReactNative/TestFolder/node_modules/react-native-android-location-enabler/android/build/intermediates/library_manifest/debug/AndroidManifest.xml:7:5-9:41
MERGED from [:react-native-android-location-enabler] /Users/waleediqbal/Documents/ReactNative/TestFolder/node_modules/react-native-android-location-enabler/android/build/intermediates/library_manifest/debug/AndroidManifest.xml:7:5-9:41
MERGED from [:react-native-device-info] /Users/waleediqbal/Documents/ReactNative/TestFolder/node_modules/react-native-device-info/android/build/intermediates/library_manifest/debug/AndroidManifest.xml:7:5-9:41
MERGED from [:react-native-device-info] /Users/waleediqbal/Documents/ReactNative/TestFolder/node_modules/react-native-device-info/android/build/intermediates/library_manifest/debug/AndroidManifest.xml:7:5-9:41
MERGED from [:react-native-geolocation-service] /Users/waleediqbal/Documents/ReactNative/TestFolder/node_modules/react-native-geolocation-service/android/build/intermediates/library_manifest/debug/AndroidManifest.xml:5:5-7:41
MERGED from [:react-native-geolocation-service] /Users/waleediqbal/Documents/ReactNative/TestFolder/node_modules/react-native-geolocation-service/android/build/intermediates/library_manifest/debug/AndroidManifest.xml:5:5-7:41
MERGED from [:react-native-gesture-handler] /Users/waleediqbal/Documents/ReactNative/TestFolder/node_modules/react-native-gesture-handler/android/build/intermediates/library_manifest/debug/AndroidManifest.xml:7:5-9:41
MERGED from [:react-native-gesture-handler] /Users/waleediqbal/Documents/ReactNative/TestFolder/node_modules/react-native-gesture-handler/android/build/intermediates/library_manifest/debug/AndroidManifest.xml:7:5-9:41
MERGED from [:react-native-google-places] /Users/waleediqbal/Documents/ReactNative/TestFolder/node_modules/react-native-google-places/android/build/intermediates/library_manifest/debug/AndroidManifest.xml:5:5-7:41
MERGED from [:react-native-google-places] /Users/waleediqbal/Documents/ReactNative/TestFolder/node_modules/react-native-google-places/android/build/intermediates/library_manifest/debug/AndroidManifest.xml:5:5-7:41
MERGED from [:react-native-reanimated] /Users/waleediqbal/Documents/ReactNative/TestFolder/node_modules/react-native-reanimated/android/build/intermediates/library_manifest/debug/AndroidManifest.xml:7:5-9:41
MERGED from [:react-native-reanimated] /Users/waleediqbal/Documents/ReactNative/TestFolder/node_modules/react-native-reanimated/android/build/intermediates/library_manifest/debug/AndroidManifest.xml:7:5-9:41
MERGED from [:react-native-safe-area-context] /Users/waleediqbal/Documents/ReactNative/TestFolder/node_modules/react-native-safe-area-context/android/build/intermediates/library_manifest/debug/AndroidManifest.xml:5:5-7:41
MERGED from [:react-native-safe-area-context] /Users/waleediqbal/Documents/ReactNative/TestFolder/node_modules/react-native-safe-area-context/android/build/intermediates/library_manifest/debug/AndroidManifest.xml:5:5-7:41
MERGED from [:react-native-screens] /Users/waleediqbal/Documents/ReactNative/TestFolder/node_modules/react-native-screens/android/build/intermediates/library_manifest/debug/AndroidManifest.xml:7:5-9:41
MERGED from [:react-native-screens] /Users/waleediqbal/Documents/ReactNative/TestFolder/node_modules/react-native-screens/android/build/intermediates/library_manifest/debug/AndroidManifest.xml:7:5-9:41
MERGED from [:react-native-splash-screen] /Users/waleediqbal/Documents/ReactNative/TestFolder/node_modules/react-native-splash-screen/android/build/intermediates/library_manifest/debug/AndroidManifest.xml:7:5-9:41
MERGED from [:react-native-splash-screen] /Users/waleediqbal/Documents/ReactNative/TestFolder/node_modules/react-native-splash-screen/android/build/intermediates/library_manifest/debug/AndroidManifest.xml:7:5-9:41
MERGED from [:react-native-thermal-receipt-printer] /Users/waleediqbal/Documents/ReactNative/TestFolder/node_modules/react-native-thermal-receipt-printer/android/build/intermediates/library_manifest/debug/AndroidManifest.xml:7:5-9:41
MERGED from [:react-native-thermal-receipt-printer] /Users/waleediqbal/Documents/ReactNative/TestFolder/node_modules/react-native-thermal-receipt-printer/android/build/intermediates/library_manifest/debug/AndroidManifest.xml:7:5-9:41
MERGED from [:react-native-vector-icons] /Users/waleediqbal/Documents/ReactNative/TestFolder/node_modules/react-native-vector-icons/android/build/intermediates/library_manifest/debug/AndroidManifest.xml:7:5-9:41
MERGED from [:react-native-vector-icons] /Users/waleediqbal/Documents/ReactNative/TestFolder/node_modules/react-native-vector-icons/android/build/intermediates/library_manifest/debug/AndroidManifest.xml:7:5-9:41
MERGED from [:react-native-version-check] /Users/waleediqbal/Documents/ReactNative/TestFolder/node_modules/react-native-version-check/android/build/intermediates/library_manifest/debug/AndroidManifest.xml:7:5-9:41
MERGED from [:react-native-version-check] /Users/waleediqbal/Documents/ReactNative/TestFolder/node_modules/react-native-version-check/android/build/intermediates/library_manifest/debug/AndroidManifest.xml:7:5-9:41
MERGED from [com.facebook.react:react-native:0.63.4] /Users/waleediqbal/.gradle/caches/transforms-2/files-2.1/d4d8b1986010610a499a29cb7bac493a/jetified-react-native-0.63.4/AndroidManifest.xml:7:5-9:41
MERGED from [com.facebook.react:react-native:0.63.4] /Users/waleediqbal/.gradle/caches/transforms-2/files-2.1/d4d8b1986010610a499a29cb7bac493a/jetified-react-native-0.63.4/AndroidManifest.xml:7:5-9:41
MERGED from [com.google.android.libraries.places:places:1.1.0] /Users/waleediqbal/.gradle/caches/transforms-2/files-2.1/aba03b17e369c0d43479c54af4ecb6c2/jetified-places-1.1.0/AndroidManifest.xml:7:5-44
MERGED from [com.google.android.libraries.places:places:1.1.0] /Users/waleediqbal/.gradle/caches/transforms-2/files-2.1/aba03b17e369c0d43479c54af4ecb6c2/jetified-places-1.1.0/AndroidManifest.xml:7:5-44
MERGED from [androidx.legacy:legacy-support-v4:1.0.0] /Users/waleediqbal/.gradle/caches/transforms-2/files-2.1/b9604666a0b9bbe1ab905eeb5622e5c4/legacy-support-v4-1.0.0/AndroidManifest.xml:20:5-44
MERGED from [androidx.legacy:legacy-support-v4:1.0.0] /Users/waleediqbal/.gradle/caches/transforms-2/files-2.1/b9604666a0b9bbe1ab905eeb5622e5c4/legacy-support-v4-1.0.0/AndroidManifest.xml:20:5-44
MERGED from [androidx.recyclerview:recyclerview:1.0.0] /Users/waleediqbal/.gradle/caches/transforms-2/files-2.1/704f5b23769adab362d27449ac985204/recyclerview-1.0.0/AndroidManifest.xml:20:5-44
MERGED from [androidx.recyclerview:recyclerview:1.0.0] /Users/waleediqbal/.gradle/caches/transforms-2/files-2.1/704f5b23769adab362d27449ac985204/recyclerview-1.0.0/AndroidManifest.xml:20:5-44
MERGED from [androidx.legacy:legacy-support-core-ui:1.0.0] /Users/waleediqbal/.gradle/caches/transforms-2/files-2.1/c4a0854b2c4c976f5fd7b439b5911773/legacy-support-core-ui-1.0.0/AndroidManifest.xml:20:5-44
MERGED from [androidx.legacy:legacy-support-core-ui:1.0.0] /Users/waleediqbal/.gradle/caches/transforms-2/files-2.1/c4a0854b2c4c976f5fd7b439b5911773/legacy-support-core-ui-1.0.0/AndroidManifest.xml:20:5-44
MERGED from [androidx.swiperefreshlayout:swiperefreshlayout:1.0.0] /Users/waleediqbal/.gradle/caches/transforms-2/files-2.1/37b6f551bc5ae153b0b627de8f563815/swiperefreshlayout-1.0.0/AndroidManifest.xml:20:5-44
MERGED from [androidx.swiperefreshlayout:swiperefreshlayout:1.0.0] /Users/waleediqbal/.gradle/caches/transforms-2/files-2.1/37b6f551bc5ae153b0b627de8f563815/swiperefreshlayout-1.0.0/AndroidManifest.xml:20:5-44
MERGED from [org.webkit:android-jsc:r245459] /Users/waleediqbal/.gradle/caches/transforms-2/files-2.1/6dd6245206e34676e1ee3aa6ee0f68c9/android-jsc-r245459/AndroidManifest.xml:7:5-9:41
MERGED from [org.webkit:android-jsc:r245459] /Users/waleediqbal/.gradle/caches/transforms-2/files-2.1/6dd6245206e34676e1ee3aa6ee0f68c9/android-jsc-r245459/AndroidManifest.xml:7:5-9:41
MERGED from [:react-native-android-location-services-dialog-box] /Users/waleediqbal/Documents/ReactNative/TestFolder/node_modules/react-native-android-location-services-dialog-box/android/build/intermediates/library_manifest/debug/AndroidManifest.xml:5:5-7:41
MERGED from [:react-native-android-location-services-dialog-box] /Users/waleediqbal/Documents/ReactNative/TestFolder/node_modules/react-native-android-location-services-dialog-box/android/build/intermediates/library_manifest/debug/AndroidManifest.xml:5:5-7:41
MERGED from [:react-native-linear-gradient] /Users/waleediqbal/Documents/ReactNative/TestFolder/node_modules/react-native-linear-gradient/android/build/intermediates/library_manifest/debug/AndroidManifest.xml:7:5-9:41
MERGED from [:react-native-linear-gradient] /Users/waleediqbal/Documents/ReactNative/TestFolder/node_modules/react-native-linear-gradient/android/build/intermediates/library_manifest/debug/AndroidManifest.xml:7:5-9:41
MERGED from [com.facebook.fresco:flipper:2.2.0] /Users/waleediqbal/.gradle/caches/transforms-2/files-2.1/40741ffe3de6a11d99116b4e82d60d46/flipper-2.2.0/AndroidManifest.xml:5:5-7:41
MERGED from [com.facebook.fresco:flipper:2.2.0] /Users/waleediqbal/.gradle/caches/transforms-2/files-2.1/40741ffe3de6a11d99116b4e82d60d46/flipper-2.2.0/AndroidManifest.xml:5:5-7:41
MERGED from [com.facebook.fresco:stetho:2.2.0] /Users/waleediqbal/.gradle/caches/transforms-2/files-2.1/03aa51752e7d7098a02114b07907dabd/stetho-2.2.0/AndroidManifest.xml:5:5-7:41
MERGED from [com.facebook.fresco:stetho:2.2.0] /Users/waleediqbal/.gradle/caches/transforms-2/files-2.1/03aa51752e7d7098a02114b07907dabd/stetho-2.2.0/AndroidManifest.xml:5:5-7:41
MERGED from [com.facebook.fresco:fresco:2.2.0] /Users/waleediqbal/.gradle/caches/transforms-2/files-2.1/e9f56679cbe795a6f7c93e9a035f66f2/fresco-2.2.0/AndroidManifest.xml:5:5-7:41
MERGED from [com.facebook.fresco:fresco:2.2.0] /Users/waleediqbal/.gradle/caches/transforms-2/files-2.1/e9f56679cbe795a6f7c93e9a035f66f2/fresco-2.2.0/AndroidManifest.xml:5:5-7:41
MERGED from [com.facebook.fresco:imagepipeline-okhttp3:2.0.0] /Users/waleediqbal/.gradle/caches/transforms-2/files-2.1/559ddc4b7f576fedc63e05921b88e895/imagepipeline-okhttp3-2.0.0/AndroidManifest.xml:5:5-7:41
MERGED from [com.facebook.fresco:imagepipeline-okhttp3:2.0.0] /Users/waleediqbal/.gradle/caches/transforms-2/files-2.1/559ddc4b7f576fedc63e05921b88e895/imagepipeline-okhttp3-2.0.0/AndroidManifest.xml:5:5-7:41
MERGED from [com.facebook.fresco:drawee:2.2.0] /Users/waleediqbal/.gradle/caches/transforms-2/files-2.1/0288f1bca211d259126211029f92054c/drawee-2.2.0/AndroidManifest.xml:5:5-7:41
MERGED from [com.facebook.fresco:drawee:2.2.0] /Users/waleediqbal/.gradle/caches/transforms-2/files-2.1/0288f1bca211d259126211029f92054c/drawee-2.2.0/AndroidManifest.xml:5:5-7:41
MERGED from [com.facebook.fresco:nativeimagefilters:2.2.0] /Users/waleediqbal/.gradle/caches/transforms-2/files-2.1/766471e6648d662c31b10c1bbc5126fe/nativeimagefilters-2.2.0/AndroidManifest.xml:5:5-7:41
MERGED from [com.facebook.fresco:nativeimagefilters:2.2.0] /Users/waleediqbal/.gradle/caches/transforms-2/files-2.1/766471e6648d662c31b10c1bbc5126fe/nativeimagefilters-2.2.0/AndroidManifest.xml:5:5-7:41
MERGED from [com.facebook.fresco:memory-type-native:2.2.0] /Users/waleediqbal/.gradle/caches/transforms-2/files-2.1/57a87fccccbdbe36e69f72b01ce521f1/memory-type-native-2.2.0/AndroidManifest.xml:5:5-7:41
MERGED from [com.facebook.fresco:memory-type-native:2.2.0] /Users/waleediqbal/.gradle/caches/transforms-2/files-2.1/57a87fccccbdbe36e69f72b01ce521f1/memory-type-native-2.2.0/AndroidManifest.xml:5:5-7:41
MERGED from [com.facebook.fresco:memory-type-java:2.2.0] /Users/waleediqbal/.gradle/caches/transforms-2/files-2.1/0abe31decb23fc939dbab3bf21d1ccec/memory-type-java-2.2.0/AndroidManifest.xml:5:5-7:41
MERGED from [com.facebook.fresco:memory-type-java:2.2.0] /Users/waleediqbal/.gradle/caches/transforms-2/files-2.1/0abe31decb23fc939dbab3bf21d1ccec/memory-type-java-2.2.0/AndroidManifest.xml:5:5-7:41
MERGED from [com.facebook.fresco:imagepipeline-native:2.2.0] /Users/waleediqbal/.gradle/caches/transforms-2/files-2.1/3b508a8e13388bdc4e88ee330cec4cdc/imagepipeline-native-2.2.0/AndroidManifest.xml:5:5-7:41
MERGED from [com.facebook.fresco:imagepipeline-native:2.2.0] /Users/waleediqbal/.gradle/caches/transforms-2/files-2.1/3b508a8e13388bdc4e88ee330cec4cdc/imagepipeline-native-2.2.0/AndroidManifest.xml:5:5-7:41
MERGED from [com.facebook.fresco:memory-type-ashmem:2.2.0] /Users/waleediqbal/.gradle/caches/transforms-2/files-2.1/104429b66e46c675401dada578683150/memory-type-ashmem-2.2.0/AndroidManifest.xml:5:5-7:41
MERGED from [com.facebook.fresco:memory-type-ashmem:2.2.0] /Users/waleediqbal/.gradle/caches/transforms-2/files-2.1/104429b66e46c675401dada578683150/memory-type-ashmem-2.2.0/AndroidManifest.xml:5:5-7:41
MERGED from [com.facebook.fresco:imagepipeline:2.2.0] /Users/waleediqbal/.gradle/caches/transforms-2/files-2.1/fe90bfac000734a7d0d9c150b7915ff6/imagepipeline-2.2.0/AndroidManifest.xml:5:5-7:41
MERGED from [com.facebook.fresco:imagepipeline:2.2.0] /Users/waleediqbal/.gradle/caches/transforms-2/files-2.1/fe90bfac000734a7d0d9c150b7915ff6/imagepipeline-2.2.0/AndroidManifest.xml:5:5-7:41
MERGED from [com.facebook.fresco:nativeimagetranscoder:2.2.0] /Users/waleediqbal/.gradle/caches/transforms-2/files-2.1/34efa7b8fb78d46cf2b753de7fbfc5a5/nativeimagetranscoder-2.2.0/AndroidManifest.xml:5:5-7:41
MERGED from [com.facebook.fresco:nativeimagetranscoder:2.2.0] /Users/waleediqbal/.gradle/caches/transforms-2/files-2.1/34efa7b8fb78d46cf2b753de7fbfc5a5/nativeimagetranscoder-2.2.0/AndroidManifest.xml:5:5-7:41
MERGED from [com.facebook.fresco:imagepipeline-base:2.2.0] /Users/waleediqbal/.gradle/caches/transforms-2/files-2.1/237bbc58c0787eee6b78f947e2baeeaa/imagepipeline-base-2.2.0/AndroidManifest.xml:5:5-7:41
MERGED from [com.facebook.fresco:imagepipeline-base:2.2.0] /Users/waleediqbal/.gradle/caches/transforms-2/files-2.1/237bbc58c0787eee6b78f947e2baeeaa/imagepipeline-base-2.2.0/AndroidManifest.xml:5:5-7:41
MERGED from [com.facebook.fresco:soloader:2.2.0] /Users/waleediqbal/.gradle/caches/transforms-2/files-2.1/65f592cbf7e10992754db73be6c6ba25/soloader-2.2.0/AndroidManifest.xml:5:5-7:41
MERGED from [com.facebook.fresco:soloader:2.2.0] /Users/waleediqbal/.gradle/caches/transforms-2/files-2.1/65f592cbf7e10992754db73be6c6ba25/soloader-2.2.0/AndroidManifest.xml:5:5-7:41
MERGED from [com.facebook.soloader:soloader:0.9.0] /Users/waleediqbal/.gradle/caches/transforms-2/files-2.1/c34148f30cbc3e974eff21cbfb6a112a/soloader-0.9.0/AndroidManifest.xml:7:5-9:41
MERGED from [com.facebook.soloader:soloader:0.9.0] /Users/waleediqbal/.gradle/caches/transforms-2/files-2.1/c34148f30cbc3e974eff21cbfb6a112a/soloader-0.9.0/AndroidManifest.xml:7:5-9:41
MERGED from [androidx.appcompat:appcompat:1.1.0] /Users/waleediqbal/.gradle/caches/transforms-2/files-2.1/1cb9b9ea592aa2ea85233be252327dcf/appcompat-1.1.0/AndroidManifest.xml:20:5-22:41
MERGED from [androidx.appcompat:appcompat:1.1.0] /Users/waleediqbal/.gradle/caches/transforms-2/files-2.1/1cb9b9ea592aa2ea85233be252327dcf/appcompat-1.1.0/AndroidManifest.xml:20:5-22:41
MERGED from [androidx.appcompat:appcompat-resources:1.1.0] /Users/waleediqbal/.gradle/caches/transforms-2/files-2.1/b1b165607eae60d70e4267b97e24514b/appcompat-resources-1.1.0/AndroidManifest.xml:20:5-22:41
MERGED from [androidx.appcompat:appcompat-resources:1.1.0] /Users/waleediqbal/.gradle/caches/transforms-2/files-2.1/b1b165607eae60d70e4267b97e24514b/appcompat-resources-1.1.0/AndroidManifest.xml:20:5-22:41
MERGED from [androidx.vectordrawable:vectordrawable-animated:1.1.0] /Users/waleediqbal/.gradle/caches/transforms-2/files-2.1/28888a6f6660db47b3788df392c672a7/vectordrawable-animated-1.1.0/AndroidManifest.xml:20:5-22:41
MERGED from [androidx.vectordrawable:vectordrawable-animated:1.1.0] /Users/waleediqbal/.gradle/caches/transforms-2/files-2.1/28888a6f6660db47b3788df392c672a7/vectordrawable-animated-1.1.0/AndroidManifest.xml:20:5-22:41
MERGED from [androidx.interpolator:interpolator:1.0.0] /Users/waleediqbal/.gradle/caches/transforms-2/files-2.1/efb592adf2592d134c27edc4a56e19d2/interpolator-1.0.0/AndroidManifest.xml:20:5-44
MERGED from [androidx.interpolator:interpolator:1.0.0] /Users/waleediqbal/.gradle/caches/transforms-2/files-2.1/efb592adf2592d134c27edc4a56e19d2/interpolator-1.0.0/AndroidManifest.xml:20:5-44
MERGED from [com.google.android.gms:play-services-iid:17.0.0] /Users/waleediqbal/.gradle/caches/transforms-2/files-2.1/61e3e279020c351517b511e7d56d43f0/play-services-iid-17.0.0/AndroidManifest.xml:20:5-44
MERGED from [com.google.android.gms:play-services-iid:17.0.0] /Users/waleediqbal/.gradle/caches/transforms-2/files-2.1/61e3e279020c351517b511e7d56d43f0/play-services-iid-17.0.0/AndroidManifest.xml:20:5-44
MERGED from [androidx.transition:transition:1.1.0] /Users/waleediqbal/.gradle/caches/transforms-2/files-2.1/0543f56f80f0ca8ae69e84c65fb92ce7/transition-1.1.0/AndroidManifest.xml:20:5-44
MERGED from [androidx.transition:transition:1.1.0] /Users/waleediqbal/.gradle/caches/transforms-2/files-2.1/0543f56f80f0ca8ae69e84c65fb92ce7/transition-1.1.0/AndroidManifest.xml:20:5-44
MERGED from [com.google.android.gms:play-services-location:17.0.0] /Users/waleediqbal/.gradle/caches/transforms-2/files-2.1/cfe184b2b3fc6f019a80d581fc6f7447/play-services-location-17.0.0/AndroidManifest.xml:5:5-44
MERGED from [com.google.android.gms:play-services-location:17.0.0] /Users/waleediqbal/.gradle/caches/transforms-2/files-2.1/cfe184b2b3fc6f019a80d581fc6f7447/play-services-location-17.0.0/AndroidManifest.xml:5:5-44
MERGED from [com.google.android.gms:play-services-clearcut:16.0.0] /Users/waleediqbal/.gradle/caches/transforms-2/files-2.1/181a6ea40065dd361ffebabec843fbfd/jetified-play-services-clearcut-16.0.0/AndroidManifest.xml:20:5-44
MERGED from [com.google.android.gms:play-services-clearcut:16.0.0] /Users/waleediqbal/.gradle/caches/transforms-2/files-2.1/181a6ea40065dd361ffebabec843fbfd/jetified-play-services-clearcut-16.0.0/AndroidManifest.xml:20:5-44
MERGED from [com.google.android.gms:play-services-maps:16.1.0] /Users/waleediqbal/.gradle/caches/transforms-2/files-2.1/dc5091ee4d4f69d2ccdb8c0c244e8b06/jetified-play-services-maps-16.1.0/AndroidManifest.xml:20:5-44
MERGED from [com.google.android.gms:play-services-maps:16.1.0] /Users/waleediqbal/.gradle/caches/transforms-2/files-2.1/dc5091ee4d4f69d2ccdb8c0c244e8b06/jetified-play-services-maps-16.1.0/AndroidManifest.xml:20:5-44
MERGED from [com.google.android.gms:play-services-phenotype:16.0.0] /Users/waleediqbal/.gradle/caches/transforms-2/files-2.1/6e9e9dfc3c57d4659c7ab7204c453f27/jetified-play-services-phenotype-16.0.0/AndroidManifest.xml:20:5-44
MERGED from [com.google.android.gms:play-services-phenotype:16.0.0] /Users/waleediqbal/.gradle/caches/transforms-2/files-2.1/6e9e9dfc3c57d4659c7ab7204c453f27/jetified-play-services-phenotype-16.0.0/AndroidManifest.xml:20:5-44
MERGED from [com.google.android.gms:play-services-base:17.0.0] /Users/waleediqbal/.gradle/caches/transforms-2/files-2.1/fc8046cb9a5df9499609a5f7f8270b1b/play-services-base-17.0.0/AndroidManifest.xml:20:5-44
MERGED from [com.google.android.gms:play-services-base:17.0.0] /Users/waleediqbal/.gradle/caches/transforms-2/files-2.1/fc8046cb9a5df9499609a5f7f8270b1b/play-services-base-17.0.0/AndroidManifest.xml:20:5-44
MERGED from [com.google.android.gms:play-services-places-placereport:17.0.0] /Users/waleediqbal/.gradle/caches/transforms-2/files-2.1/7aa1097eb47596f6fc594d09cb57b709/play-services-places-placereport-17.0.0/AndroidManifest.xml:20:5-44
MERGED from [com.google.android.gms:play-services-places-placereport:17.0.0] /Users/waleediqbal/.gradle/caches/transforms-2/files-2.1/7aa1097eb47596f6fc594d09cb57b709/play-services-places-placereport-17.0.0/AndroidManifest.xml:20:5-44
MERGED from [com.google.android.gms:play-services-tasks:17.0.0] /Users/waleediqbal/.gradle/caches/transforms-2/files-2.1/a5841d1417e823e700e7ed3e71829aa8/play-services-tasks-17.0.0/AndroidManifest.xml:5:5-44
MERGED from [com.google.android.gms:play-services-tasks:17.0.0] /Users/waleediqbal/.gradle/caches/transforms-2/files-2.1/a5841d1417e823e700e7ed3e71829aa8/play-services-tasks-17.0.0/AndroidManifest.xml:5:5-44
MERGED from [com.google.android.gms:play-services-stats:17.0.0] /Users/waleediqbal/.gradle/caches/transforms-2/files-2.1/a7d592ae24f64a8578bf18e4cd7bc115/play-services-stats-17.0.0/AndroidManifest.xml:5:5-44
MERGED from [com.google.android.gms:play-services-stats:17.0.0] /Users/waleediqbal/.gradle/caches/transforms-2/files-2.1/a7d592ae24f64a8578bf18e4cd7bc115/play-services-stats-17.0.0/AndroidManifest.xml:5:5-44
MERGED from [com.google.android.gms:play-services-basement:17.0.0] /Users/waleediqbal/.gradle/caches/transforms-2/files-2.1/e3f2e4860c91caf3bc414e66418d2ab8/jetified-play-services-basement-17.0.0/AndroidManifest.xml:20:5-44
MERGED from [com.google.android.gms:play-services-basement:17.0.0] /Users/waleediqbal/.gradle/caches/transforms-2/files-2.1/e3f2e4860c91caf3bc414e66418d2ab8/jetified-play-services-basement-17.0.0/AndroidManifest.xml:20:5-44
MERGED from [androidx.fragment:fragment:1.1.0] /Users/waleediqbal/.gradle/caches/transforms-2/files-2.1/c934b79c937aa60e75835d011c2154af/fragment-1.1.0/AndroidManifest.xml:20:5-22:41
MERGED from [androidx.fragment:fragment:1.1.0] /Users/waleediqbal/.gradle/caches/transforms-2/files-2.1/c934b79c937aa60e75835d011c2154af/fragment-1.1.0/AndroidManifest.xml:20:5-22:41
MERGED from [androidx.drawerlayout:drawerlayout:1.0.0] /Users/waleediqbal/.gradle/caches/transforms-2/files-2.1/c99af001058cd5265376dded8456f828/drawerlayout-1.0.0/AndroidManifest.xml:20:5-44
MERGED from [androidx.drawerlayout:drawerlayout:1.0.0] /Users/waleediqbal/.gradle/caches/transforms-2/files-2.1/c99af001058cd5265376dded8456f828/drawerlayout-1.0.0/AndroidManifest.xml:20:5-44
MERGED from [androidx.media:media:1.0.0] /Users/waleediqbal/.gradle/caches/transforms-2/files-2.1/e1a755a5eb4e9c5b244c1a9f660f0c11/media-1.0.0/AndroidManifest.xml:20:5-44
MERGED from [androidx.media:media:1.0.0] /Users/waleediqbal/.gradle/caches/transforms-2/files-2.1/e1a755a5eb4e9c5b244c1a9f660f0c11/media-1.0.0/AndroidManifest.xml:20:5-44
MERGED from [androidx.legacy:legacy-support-core-utils:1.0.0] /Users/waleediqbal/.gradle/caches/transforms-2/files-2.1/1b42f88dea3794bc67b44839b4ca1a7b/legacy-support-core-utils-1.0.0/AndroidManifest.xml:20:5-44
MERGED from [androidx.legacy:legacy-support-core-utils:1.0.0] /Users/waleediqbal/.gradle/caches/transforms-2/files-2.1/1b42f88dea3794bc67b44839b4ca1a7b/legacy-support-core-utils-1.0.0/AndroidManifest.xml:20:5-44
MERGED from [androidx.viewpager:viewpager:1.0.0] /Users/waleediqbal/.gradle/caches/transforms-2/files-2.1/40f1c5d439eea30faeaafe93e7bdf45f/viewpager-1.0.0/AndroidManifest.xml:20:5-44
MERGED from [androidx.viewpager:viewpager:1.0.0] /Users/waleediqbal/.gradle/caches/transforms-2/files-2.1/40f1c5d439eea30faeaafe93e7bdf45f/viewpager-1.0.0/AndroidManifest.xml:20:5-44
MERGED from [androidx.loader:loader:1.0.0] /Users/waleediqbal/.gradle/caches/transforms-2/files-2.1/faa15558a5d57e35e462c9e1f0248694/loader-1.0.0/AndroidManifest.xml:20:5-44
MERGED from [androidx.loader:loader:1.0.0] /Users/waleediqbal/.gradle/caches/transforms-2/files-2.1/faa15558a5d57e35e462c9e1f0248694/loader-1.0.0/AndroidManifest.xml:20:5-44
MERGED from [androidx.activity:activity:1.0.0] /Users/waleediqbal/.gradle/caches/transforms-2/files-2.1/cb2387ed8645a8641b6e8f462a3058a0/activity-1.0.0/AndroidManifest.xml:20:5-22:41
MERGED from [androidx.activity:activity:1.0.0] /Users/waleediqbal/.gradle/caches/transforms-2/files-2.1/cb2387ed8645a8641b6e8f462a3058a0/activity-1.0.0/AndroidManifest.xml:20:5-22:41
MERGED from [androidx.vectordrawable:vectordrawable:1.1.0] /Users/waleediqbal/.gradle/caches/transforms-2/files-2.1/6bd464ed06f075f4e42b3fde6a89e60a/vectordrawable-1.1.0/AndroidManifest.xml:20:5-22:41
MERGED from [androidx.vectordrawable:vectordrawable:1.1.0] /Users/waleediqbal/.gradle/caches/transforms-2/files-2.1/6bd464ed06f075f4e42b3fde6a89e60a/vectordrawable-1.1.0/AndroidManifest.xml:20:5-22:41
MERGED from [androidx.coordinatorlayout:coordinatorlayout:1.0.0] /Users/waleediqbal/.gradle/caches/transforms-2/files-2.1/1289d5f505a72781714dc6082144c977/coordinatorlayout-1.0.0/AndroidManifest.xml:20:5-44
MERGED from [androidx.coordinatorlayout:coordinatorlayout:1.0.0] /Users/waleediqbal/.gradle/caches/transforms-2/files-2.1/1289d5f505a72781714dc6082144c977/coordinatorlayout-1.0.0/AndroidManifest.xml:20:5-44
MERGED from [androidx.slidingpanelayout:slidingpanelayout:1.0.0] /Users/waleediqbal/.gradle/caches/transforms-2/files-2.1/f53bca436baf2a2670073f8750b0b7d5/slidingpanelayout-1.0.0/AndroidManifest.xml:20:5-44
MERGED from [androidx.slidingpanelayout:slidingpanelayout:1.0.0] /Users/waleediqbal/.gradle/caches/transforms-2/files-2.1/f53bca436baf2a2670073f8750b0b7d5/slidingpanelayout-1.0.0/AndroidManifest.xml:20:5-44
MERGED from [androidx.customview:customview:1.0.0] /Users/waleediqbal/.gradle/caches/transforms-2/files-2.1/e0a79d4379c4eef3803202a497c19313/customview-1.0.0/AndroidManifest.xml:20:5-44
MERGED from [androidx.customview:customview:1.0.0] /Users/waleediqbal/.gradle/caches/transforms-2/files-2.1/e0a79d4379c4eef3803202a497c19313/customview-1.0.0/AndroidManifest.xml:20:5-44
MERGED from [androidx.asynclayoutinflater:asynclayoutinflater:1.0.0] /Users/waleediqbal/.gradle/caches/transforms-2/files-2.1/8dc6c78d6d7c962ba02416981491cd60/asynclayoutinflater-1.0.0/AndroidManifest.xml:20:5-44
MERGED from [androidx.asynclayoutinflater:asynclayoutinflater:1.0.0] /Users/waleediqbal/.gradle/caches/transforms-2/files-2.1/8dc6c78d6d7c962ba02416981491cd60/asynclayoutinflater-1.0.0/AndroidManifest.xml:20:5-44
MERGED from [androidx.core:core:1.3.2] /Users/waleediqbal/.gradle/caches/transforms-2/files-2.1/f52ab1b1c1a6a08a00d0ab9466319bb3/core-1.3.2/AndroidManifest.xml:20:5-22:41
MERGED from [androidx.core:core:1.3.2] /Users/waleediqbal/.gradle/caches/transforms-2/files-2.1/f52ab1b1c1a6a08a00d0ab9466319bb3/core-1.3.2/AndroidManifest.xml:20:5-22:41
MERGED from [androidx.cursoradapter:cursoradapter:1.0.0] /Users/waleediqbal/.gradle/caches/transforms-2/files-2.1/3b41f2ef3d4a30256bbd9d1017371108/cursoradapter-1.0.0/AndroidManifest.xml:20:5-44
MERGED from [androidx.cursoradapter:cursoradapter:1.0.0] /Users/waleediqbal/.gradle/caches/transforms-2/files-2.1/3b41f2ef3d4a30256bbd9d1017371108/cursoradapter-1.0.0/AndroidManifest.xml:20:5-44
MERGED from [androidx.versionedparcelable:versionedparcelable:1.1.0] /Users/waleediqbal/.gradle/caches/transforms-2/files-2.1/2786c84c1e653e40bd67508414ca298f/versionedparcelable-1.1.0/AndroidManifest.xml:20:5-22:41
MERGED from [androidx.versionedparcelable:versionedparcelable:1.1.0] /Users/waleediqbal/.gradle/caches/transforms-2/files-2.1/2786c84c1e653e40bd67508414ca298f/versionedparcelable-1.1.0/AndroidManifest.xml:20:5-22:41
MERGED from [androidx.cardview:cardview:1.0.0] /Users/waleediqbal/.gradle/caches/transforms-2/files-2.1/7ce8a2eb9e81825ec9bcc373c597a746/cardview-1.0.0/AndroidManifest.xml:20:5-44
MERGED from [androidx.cardview:cardview:1.0.0] /Users/waleediqbal/.gradle/caches/transforms-2/files-2.1/7ce8a2eb9e81825ec9bcc373c597a746/cardview-1.0.0/AndroidManifest.xml:20:5-44
MERGED from [com.github.bumptech.glide:glide:4.3.1] /Users/waleediqbal/.gradle/caches/transforms-2/files-2.1/2ff89e5e0a19e85ec53bbdafa6bf46a7/jetified-glide-4.3.1/AndroidManifest.xml:6:5-8:41
MERGED from [com.github.bumptech.glide:glide:4.3.1] /Users/waleediqbal/.gradle/caches/transforms-2/files-2.1/2ff89e5e0a19e85ec53bbdafa6bf46a7/jetified-glide-4.3.1/AndroidManifest.xml:6:5-8:41
MERGED from [androidx.documentfile:documentfile:1.0.0] /Users/waleediqbal/.gradle/caches/transforms-2/files-2.1/d78ae12d9aa12e93077461f94a53335b/documentfile-1.0.0/AndroidManifest.xml:20:5-44
MERGED from [androidx.documentfile:documentfile:1.0.0] /Users/waleediqbal/.gradle/caches/transforms-2/files-2.1/d78ae12d9aa12e93077461f94a53335b/documentfile-1.0.0/AndroidManifest.xml:20:5-44
MERGED from [androidx.localbroadcastmanager:localbroadcastmanager:1.0.0] /Users/waleediqbal/.gradle/caches/transforms-2/files-2.1/3d5c1e204ac62dc0f6d5059f5e3eaa42/localbroadcastmanager-1.0.0/AndroidManifest.xml:20:5-44
MERGED from [androidx.localbroadcastmanager:localbroadcastmanager:1.0.0] /Users/waleediqbal/.gradle/caches/transforms-2/files-2.1/3d5c1e204ac62dc0f6d5059f5e3eaa42/localbroadcastmanager-1.0.0/AndroidManifest.xml:20:5-44
MERGED from [androidx.print:print:1.0.0] /Users/waleediqbal/.gradle/caches/transforms-2/files-2.1/37c50c3790fd1f696b8c9e7a44956408/print-1.0.0/AndroidManifest.xml:20:5-44
MERGED from [androidx.print:print:1.0.0] /Users/waleediqbal/.gradle/caches/transforms-2/files-2.1/37c50c3790fd1f696b8c9e7a44956408/print-1.0.0/AndroidManifest.xml:20:5-44
MERGED from [androidx.lifecycle:lifecycle-runtime:2.1.0] /Users/waleediqbal/.gradle/caches/transforms-2/files-2.1/7268e652b9483dcb77c195ad2a8fa532/lifecycle-runtime-2.1.0/AndroidManifest.xml:20:5-44
MERGED from [androidx.lifecycle:lifecycle-runtime:2.1.0] /Users/waleediqbal/.gradle/caches/transforms-2/files-2.1/7268e652b9483dcb77c195ad2a8fa532/lifecycle-runtime-2.1.0/AndroidManifest.xml:20:5-44
MERGED from [androidx.lifecycle:lifecycle-viewmodel:2.1.0] /Users/waleediqbal/.gradle/caches/transforms-2/files-2.1/566e741fe30adc1beecccfb70fe55958/lifecycle-viewmodel-2.1.0/AndroidManifest.xml:20:5-44
MERGED from [androidx.lifecycle:lifecycle-viewmodel:2.1.0] /Users/waleediqbal/.gradle/caches/transforms-2/files-2.1/566e741fe30adc1beecccfb70fe55958/lifecycle-viewmodel-2.1.0/AndroidManifest.xml:20:5-44
MERGED from [androidx.savedstate:savedstate:1.0.0] /Users/waleediqbal/.gradle/caches/transforms-2/files-2.1/4ce17f8b4390b23da9bedc3cee010ec1/savedstate-1.0.0/AndroidManifest.xml:20:5-22:41
MERGED from [androidx.savedstate:savedstate:1.0.0] /Users/waleediqbal/.gradle/caches/transforms-2/files-2.1/4ce17f8b4390b23da9bedc3cee010ec1/savedstate-1.0.0/AndroidManifest.xml:20:5-22:41
MERGED from [androidx.lifecycle:lifecycle-livedata:2.0.0] /Users/waleediqbal/.gradle/caches/transforms-2/files-2.1/4da6ddd3c71dbaec92b0fdf3bbca4ce7/lifecycle-livedata-2.0.0/AndroidManifest.xml:20:5-44
MERGED from [androidx.lifecycle:lifecycle-livedata:2.0.0] /Users/waleediqbal/.gradle/caches/transforms-2/files-2.1/4da6ddd3c71dbaec92b0fdf3bbca4ce7/lifecycle-livedata-2.0.0/AndroidManifest.xml:20:5-44
MERGED from [androidx.lifecycle:lifecycle-livedata-core:2.0.0] /Users/waleediqbal/.gradle/caches/transforms-2/files-2.1/7795d60208f5dec52ee32d30407c8252/lifecycle-livedata-core-2.0.0/AndroidManifest.xml:20:5-44
MERGED from [androidx.lifecycle:lifecycle-livedata-core:2.0.0] /Users/waleediqbal/.gradle/caches/transforms-2/files-2.1/7795d60208f5dec52ee32d30407c8252/lifecycle-livedata-core-2.0.0/AndroidManifest.xml:20:5-44
MERGED from [androidx.arch.core:core-runtime:2.0.0] /Users/waleediqbal/.gradle/caches/transforms-2/files-2.1/9c44c714e7f61700ba86ba0b726bac90/core-runtime-2.0.0/AndroidManifest.xml:20:5-44
MERGED from [androidx.arch.core:core-runtime:2.0.0] /Users/waleediqbal/.gradle/caches/transforms-2/files-2.1/9c44c714e7f61700ba86ba0b726bac90/core-runtime-2.0.0/AndroidManifest.xml:20:5-44
MERGED from [com.android.installreferrer:installreferrer:1.1.2] /Users/waleediqbal/.gradle/caches/transforms-2/files-2.1/744c11701aa7144a8d6a8e89bcdad6bd/installreferrer-1.1.2/AndroidManifest.xml:5:5-7:41
MERGED from [com.android.installreferrer:installreferrer:1.1.2] /Users/waleediqbal/.gradle/caches/transforms-2/files-2.1/744c11701aa7144a8d6a8e89bcdad6bd/installreferrer-1.1.2/AndroidManifest.xml:5:5-7:41
MERGED from [com.facebook.fresco:fbcore:2.2.0] /Users/waleediqbal/.gradle/caches/transforms-2/files-2.1/2c96500720dce23f08ddf87cad6606df/jetified-fbcore-2.2.0/AndroidManifest.xml:5:5-7:41
MERGED from [com.facebook.fresco:fbcore:2.2.0] /Users/waleediqbal/.gradle/caches/transforms-2/files-2.1/2c96500720dce23f08ddf87cad6606df/jetified-fbcore-2.2.0/AndroidManifest.xml:5:5-7:41
MERGED from [com.facebook.fresco:ui-common:2.2.0] /Users/waleediqbal/.gradle/caches/transforms-2/files-2.1/c114d4501470930b3986c4f9bd2da0fd/ui-common-2.2.0/AndroidManifest.xml:5:5-7:41
MERGED from [com.facebook.fresco:ui-common:2.2.0] /Users/waleediqbal/.gradle/caches/transforms-2/files-2.1/c114d4501470930b3986c4f9bd2da0fd/ui-common-2.2.0/AndroidManifest.xml:5:5-7:41
MERGED from [com.android.volley:volley:1.1.1] /Users/waleediqbal/.gradle/caches/transforms-2/files-2.1/48a12890f62bc69959bcfa632f93e122/jetified-volley-1.1.1/AndroidManifest.xml:7:5-43
MERGED from [com.android.volley:volley:1.1.1] /Users/waleediqbal/.gradle/caches/transforms-2/files-2.1/48a12890f62bc69959bcfa632f93e122/jetified-volley-1.1.1/AndroidManifest.xml:7:5-43
INJECTED from /Users/waleediqbal/Documents/ReactNative/TestFolder/android/app/src/debug/AndroidManifest.xml
INJECTED from /Users/waleediqbal/Documents/ReactNative/TestFolder/android/app/src/debug/AndroidManifest.xml
	android:targetSdkVersion
		INJECTED from /Users/waleediqbal/Documents/ReactNative/TestFolder/android/app/src/main/AndroidManifest.xml
		INJECTED from /Users/waleediqbal/Documents/ReactNative/TestFolder/android/app/src/debug/AndroidManifest.xml
	android:minSdkVersion
		INJECTED from /Users/waleediqbal/Documents/ReactNative/TestFolder/android/app/src/main/AndroidManifest.xml
		INJECTED from /Users/waleediqbal/Documents/ReactNative/TestFolder/android/app/src/debug/AndroidManifest.xml
uses-permission#android.permission.SYSTEM_ALERT_WINDOW
ADDED from /Users/waleediqbal/Documents/ReactNative/TestFolder/android/app/src/debug/AndroidManifest.xml:5:5-77
	android:name
		ADDED from /Users/waleediqbal/Documents/ReactNative/TestFolder/android/app/src/debug/AndroidManifest.xml:5:22-75
uses-permission#android.permission.ACCESS_WIFI_STATE
ADDED from [com.facebook.flipper:flipper:0.54.0] /Users/waleediqbal/.gradle/caches/transforms-2/files-2.1/1c7787ec82631e0394972c76bdabe608/flipper-0.54.0/AndroidManifest.xml:16:5-76
MERGED from [:react-native-community_netinfo] /Users/waleediqbal/Documents/ReactNative/TestFolder/node_modules/@react-native-community/netinfo/android/build/intermediates/library_manifest/debug/AndroidManifest.xml:10:5-76
MERGED from [:react-native-community_netinfo] /Users/waleediqbal/Documents/ReactNative/TestFolder/node_modules/@react-native-community/netinfo/android/build/intermediates/library_manifest/debug/AndroidManifest.xml:10:5-76
MERGED from [:react-native-thermal-receipt-printer] /Users/waleediqbal/Documents/ReactNative/TestFolder/node_modules/react-native-thermal-receipt-printer/android/build/intermediates/library_manifest/debug/AndroidManifest.xml:15:5-76
MERGED from [:react-native-thermal-receipt-printer] /Users/waleediqbal/Documents/ReactNative/TestFolder/node_modules/react-native-thermal-receipt-printer/android/build/intermediates/library_manifest/debug/AndroidManifest.xml:15:5-76
MERGED from [com.google.android.libraries.places:places:1.1.0] /Users/waleediqbal/.gradle/caches/transforms-2/files-2.1/aba03b17e369c0d43479c54af4ecb6c2/jetified-places-1.1.0/AndroidManifest.xml:10:5-76
MERGED from [com.google.android.libraries.places:places:1.1.0] /Users/waleediqbal/.gradle/caches/transforms-2/files-2.1/aba03b17e369c0d43479c54af4ecb6c2/jetified-places-1.1.0/AndroidManifest.xml:10:5-76
	android:name
		ADDED from [com.facebook.flipper:flipper:0.54.0] /Users/waleediqbal/.gradle/caches/transforms-2/files-2.1/1c7787ec82631e0394972c76bdabe608/flipper-0.54.0/AndroidManifest.xml:16:22-73
uses-permission#android.permission.ACCESS_NETWORK_STATE
ADDED from [:react-native-community_netinfo] /Users/waleediqbal/Documents/ReactNative/TestFolder/node_modules/@react-native-community/netinfo/android/build/intermediates/library_manifest/debug/AndroidManifest.xml:9:5-79
MERGED from [com.google.android.gms:play-services-maps:16.1.0] /Users/waleediqbal/.gradle/caches/transforms-2/files-2.1/dc5091ee4d4f69d2ccdb8c0c244e8b06/jetified-play-services-maps-16.1.0/AndroidManifest.xml:23:5-79
MERGED from [com.google.android.gms:play-services-maps:16.1.0] /Users/waleediqbal/.gradle/caches/transforms-2/files-2.1/dc5091ee4d4f69d2ccdb8c0c244e8b06/jetified-play-services-maps-16.1.0/AndroidManifest.xml:23:5-79
	android:name
		ADDED from [:react-native-community_netinfo] /Users/waleediqbal/Documents/ReactNative/TestFolder/node_modules/@react-native-community/netinfo/android/build/intermediates/library_manifest/debug/AndroidManifest.xml:9:22-76
uses-permission#android.permission.BLUETOOTH
ADDED from [:react-native-thermal-receipt-printer] /Users/waleediqbal/Documents/ReactNative/TestFolder/node_modules/react-native-thermal-receipt-printer/android/build/intermediates/library_manifest/debug/AndroidManifest.xml:12:5-68
	android:name
		ADDED from [:react-native-thermal-receipt-printer] /Users/waleediqbal/Documents/ReactNative/TestFolder/node_modules/react-native-thermal-receipt-printer/android/build/intermediates/library_manifest/debug/AndroidManifest.xml:12:22-65
uses-permission#android.permission.BLUETOOTH_ADMIN
ADDED from [:react-native-thermal-receipt-printer] /Users/waleediqbal/Documents/ReactNative/TestFolder/node_modules/react-native-thermal-receipt-printer/android/build/intermediates/library_manifest/debug/AndroidManifest.xml:13:5-74
	android:name
		ADDED from [:react-native-thermal-receipt-printer] /Users/waleediqbal/Documents/ReactNative/TestFolder/node_modules/react-native-thermal-receipt-printer/android/build/intermediates/library_manifest/debug/AndroidManifest.xml:13:22-71
uses-permission#android.hardware.usb.UsbAccessory
ADDED from [:react-native-thermal-receipt-printer] /Users/waleediqbal/Documents/ReactNative/TestFolder/node_modules/react-native-thermal-receipt-printer/android/build/intermediates/library_manifest/debug/AndroidManifest.xml:14:5-73
	android:name
		ADDED from [:react-native-thermal-receipt-printer] /Users/waleediqbal/Documents/ReactNative/TestFolder/node_modules/react-native-thermal-receipt-printer/android/build/intermediates/library_manifest/debug/AndroidManifest.xml:14:22-70
uses-permission#android.permission.ACCESS_FINE_LOCATION
ADDED from [com.google.android.libraries.places:places:1.1.0] /Users/waleediqbal/.gradle/caches/transforms-2/files-2.1/aba03b17e369c0d43479c54af4ecb6c2/jetified-places-1.1.0/AndroidManifest.xml:9:5-79
MERGED from [:react-native-android-location-services-dialog-box] /Users/waleediqbal/Documents/ReactNative/TestFolder/node_modules/react-native-android-location-services-dialog-box/android/build/intermediates/library_manifest/debug/AndroidManifest.xml:10:5-79
MERGED from [:react-native-android-location-services-dialog-box] /Users/waleediqbal/Documents/ReactNative/TestFolder/node_modules/react-native-android-location-services-dialog-box/android/build/intermediates/library_manifest/debug/AndroidManifest.xml:10:5-79
	android:name
		ADDED from [com.google.android.libraries.places:places:1.1.0] /Users/waleediqbal/.gradle/caches/transforms-2/files-2.1/aba03b17e369c0d43479c54af4ecb6c2/jetified-places-1.1.0/AndroidManifest.xml:9:22-76
activity#com.google.android.libraries.places.widget.AutocompleteActivity
ADDED from [com.google.android.libraries.places:places:1.1.0] /Users/waleediqbal/.gradle/caches/transforms-2/files-2.1/aba03b17e369c0d43479c54af4ecb6c2/jetified-places-1.1.0/AndroidManifest.xml:16:9-23:20
	android:label
		ADDED from [com.google.android.libraries.places:places:1.1.0] /Users/waleediqbal/.gradle/caches/transforms-2/files-2.1/aba03b17e369c0d43479c54af4ecb6c2/jetified-places-1.1.0/AndroidManifest.xml:20:13-62
	android:hardwareAccelerated
		ADDED from [com.google.android.libraries.places:places:1.1.0] /Users/waleediqbal/.gradle/caches/transforms-2/files-2.1/aba03b17e369c0d43479c54af4ecb6c2/jetified-places-1.1.0/AndroidManifest.xml:19:13-47
	android:windowSoftInputMode
		ADDED from [com.google.android.libraries.places:places:1.1.0] /Users/waleediqbal/.gradle/caches/transforms-2/files-2.1/aba03b17e369c0d43479c54af4ecb6c2/jetified-places-1.1.0/AndroidManifest.xml:22:13-71
	android:exported
		ADDED from [com.google.android.libraries.places:places:1.1.0] /Users/waleediqbal/.gradle/caches/transforms-2/files-2.1/aba03b17e369c0d43479c54af4ecb6c2/jetified-places-1.1.0/AndroidManifest.xml:18:13-37
	android:theme
		ADDED from [com.google.android.libraries.places:places:1.1.0] /Users/waleediqbal/.gradle/caches/transforms-2/files-2.1/aba03b17e369c0d43479c54af4ecb6c2/jetified-places-1.1.0/AndroidManifest.xml:21:13-66
	android:name
		ADDED from [com.google.android.libraries.places:places:1.1.0] /Users/waleediqbal/.gradle/caches/transforms-2/files-2.1/aba03b17e369c0d43479c54af4ecb6c2/jetified-places-1.1.0/AndroidManifest.xml:17:13-91
uses-permission#android.permission.ACCESS_COARSE_LOCATION
ADDED from [:react-native-android-location-services-dialog-box] /Users/waleediqbal/Documents/ReactNative/TestFolder/node_modules/react-native-android-location-services-dialog-box/android/build/intermediates/library_manifest/debug/AndroidManifest.xml:9:5-81
	android:name
		ADDED from [:react-native-android-location-services-dialog-box] /Users/waleediqbal/Documents/ReactNative/TestFolder/node_modules/react-native-android-location-services-dialog-box/android/build/intermediates/library_manifest/debug/AndroidManifest.xml:9:22-78
uses-permission#com.google.android.c2dm.permission.RECEIVE
ADDED from [com.google.android.gms:play-services-iid:17.0.0] /Users/waleediqbal/.gradle/caches/transforms-2/files-2.1/61e3e279020c351517b511e7d56d43f0/play-services-iid-17.0.0/AndroidManifest.xml:23:5-82
	android:name
		ADDED from [com.google.android.gms:play-services-iid:17.0.0] /Users/waleediqbal/.gradle/caches/transforms-2/files-2.1/61e3e279020c351517b511e7d56d43f0/play-services-iid-17.0.0/AndroidManifest.xml:23:22-79
uses-feature#0x00020000
ADDED from [com.google.android.gms:play-services-maps:16.1.0] /Users/waleediqbal/.gradle/caches/transforms-2/files-2.1/dc5091ee4d4f69d2ccdb8c0c244e8b06/jetified-play-services-maps-16.1.0/AndroidManifest.xml:26:5-28:35
	android:glEsVersion
		ADDED from [com.google.android.gms:play-services-maps:16.1.0] /Users/waleediqbal/.gradle/caches/transforms-2/files-2.1/dc5091ee4d4f69d2ccdb8c0c244e8b06/jetified-play-services-maps-16.1.0/AndroidManifest.xml:27:9-41
	android:required
		ADDED from [com.google.android.gms:play-services-maps:16.1.0] /Users/waleediqbal/.gradle/caches/transforms-2/files-2.1/dc5091ee4d4f69d2ccdb8c0c244e8b06/jetified-play-services-maps-16.1.0/AndroidManifest.xml:28:9-32
uses-library#org.apache.http.legacy
ADDED from [com.google.android.gms:play-services-maps:16.1.0] /Users/waleediqbal/.gradle/caches/transforms-2/files-2.1/dc5091ee4d4f69d2ccdb8c0c244e8b06/jetified-play-services-maps-16.1.0/AndroidManifest.xml:33:9-35:40
	android:required
		ADDED from [com.google.android.gms:play-services-maps:16.1.0] /Users/waleediqbal/.gradle/caches/transforms-2/files-2.1/dc5091ee4d4f69d2ccdb8c0c244e8b06/jetified-play-services-maps-16.1.0/AndroidManifest.xml:35:13-37
	android:name
		ADDED from [com.google.android.gms:play-services-maps:16.1.0] /Users/waleediqbal/.gradle/caches/transforms-2/files-2.1/dc5091ee4d4f69d2ccdb8c0c244e8b06/jetified-play-services-maps-16.1.0/AndroidManifest.xml:34:13-50
activity#com.google.android.gms.common.api.GoogleApiActivity
ADDED from [com.google.android.gms:play-services-base:17.0.0] /Users/waleediqbal/.gradle/caches/transforms-2/files-2.1/fc8046cb9a5df9499609a5f7f8270b1b/play-services-base-17.0.0/AndroidManifest.xml:23:9-26:75
	android:exported
		ADDED from [com.google.android.gms:play-services-base:17.0.0] /Users/waleediqbal/.gradle/caches/transforms-2/files-2.1/fc8046cb9a5df9499609a5f7f8270b1b/play-services-base-17.0.0/AndroidManifest.xml:25:13-37
	android:theme
		ADDED from [com.google.android.gms:play-services-base:17.0.0] /Users/waleediqbal/.gradle/caches/transforms-2/files-2.1/fc8046cb9a5df9499609a5f7f8270b1b/play-services-base-17.0.0/AndroidManifest.xml:26:13-72
	android:name
		ADDED from [com.google.android.gms:play-services-base:17.0.0] /Users/waleediqbal/.gradle/caches/transforms-2/files-2.1/fc8046cb9a5df9499609a5f7f8270b1b/play-services-base-17.0.0/AndroidManifest.xml:24:13-79
meta-data#com.google.android.gms.version
ADDED from [com.google.android.gms:play-services-basement:17.0.0] /Users/waleediqbal/.gradle/caches/transforms-2/files-2.1/e3f2e4860c91caf3bc414e66418d2ab8/jetified-play-services-basement-17.0.0/AndroidManifest.xml:23:9-25:69
	android:value
		ADDED from [com.google.android.gms:play-services-basement:17.0.0] /Users/waleediqbal/.gradle/caches/transforms-2/files-2.1/e3f2e4860c91caf3bc414e66418d2ab8/jetified-play-services-basement-17.0.0/AndroidManifest.xml:25:13-66
	android:name
		ADDED from [com.google.android.gms:play-services-basement:17.0.0] /Users/waleediqbal/.gradle/caches/transforms-2/files-2.1/e3f2e4860c91caf3bc414e66418d2ab8/jetified-play-services-basement-17.0.0/AndroidManifest.xml:24:13-58
uses-permission#com.google.android.finsky.permission.BIND_GET_INSTALL_REFERRER_SERVICE
ADDED from [com.android.installreferrer:installreferrer:1.1.2] /Users/waleediqbal/.gradle/caches/transforms-2/files-2.1/744c11701aa7144a8d6a8e89bcdad6bd/installreferrer-1.1.2/AndroidManifest.xml:9:5-110
	android:name
		ADDED from [com.android.installreferrer:installreferrer:1.1.2] /Users/waleediqbal/.gradle/caches/transforms-2/files-2.1/744c11701aa7144a8d6a8e89bcdad6bd/installreferrer-1.1.2/AndroidManifest.xml:9:22-107
